Dwelling_ID,SA22018,TA2018,dwelling_size
DW010003399,100700,01,21
DW010016776,103400,01,189
DW010018013,103500,01,13
DW010018014,103500,01,18
DW010018015,103500,01,29
DW010018617,103700,01,21
DW010019506,103900,01,21
DW020019535,107100,02,22
DW020019537,107100,02,17
DW030004791,109400,03,21
DW760012944,112200,76,24
DW760020372,113000,76,19
DW760026584,114000,76,16
DW760026585,114000,76,18
DW760034559,115100,76,20
DW760044951,116600,76,301
DW760047364,116800,76,19
DW760048461,116900,76,20
DW760049705,117000,76,150
DW760051761,117300,76,161
DW760051762,117300,76,20
DW760057730,117900,76,16
DW760059491,118100,76,39
DW760068709,119300,76,14
DW760068710,119300,76,23
DW760068711,119300,76,29
DW760078132,120400,76,23
DW760088881,121600,76,24
DW760107297,123400,76,20
DW760111000,123800,76,69
DW760113387,124000,76,19
DW760122305,125100,76,25
DW760146849,127400,76,23
DW760146850,127400,76,19
DW760150591,127900,76,22
DW760150592,127900,76,22
DW760156027,128500,76,40
DW760163962,129300,76,22
DW760168879,129800,76,30
DW760182306,131100,76,54
DW760184768,131400,76,252
DW760189992,131800,76,27
DW760189993,131800,76,21
DW760190801,131900,76,20
DW760190802,131900,76,51
DW760193304,132100,76,33
DW760204267,133100,76,136
DW760205066,133200,76,21
DW760208288,133500,76,27
DW760209603,133600,76,20
DW760209604,133600,76,50
DW760209605,133600,76,197
DW760211184,133800,76,100
DW760214077,134200,76,148
DW760214078,134200,76,20
DW760216230,134400,76,32
DW760216231,134400,76,19
DW760217525,134500,76,20
DW760217526,134500,76,30
DW760217527,134500,76,26
DW760217528,134500,76,21
DW760222998,135100,76,345
DW760224803,135300,76,171
DW760228186,135700,76,107
DW760228187,135700,76,20
DW760229430,135900,76,738
DW760229431,135900,76,50
DW760229432,135900,76,20
DW760231155,136000,76,36
DW760231708,136100,76,20
DW760231709,136100,76,166
DW760233556,136300,76,23
DW760235186,136400,76,297
DW760237554,136600,76,26
DW760240346,136900,76,20
DW760246833,137700,76,346
DW760250182,138000,76,23
DW760250183,138000,76,25
DW760256289,138500,76,30
DW760257954,138700,76,51
DW760257955,138700,76,50
DW760257956,138700,76,53
DW760259286,138900,76,20
DW760272879,140200,76,23
DW760273892,140300,76,270
DW760274805,140400,76,17
DW760282929,141100,76,28
DW760282930,141100,76,17
DW760284389,141300,76,20
DW760284390,141300,76,25
DW760285164,141500,76,55
DW760290878,142000,76,20
DW760296530,142600,76,54
DW760303092,143100,76,18
DW760305239,143300,76,55
DW760305240,143300,76,50
DW760306304,143400,76,14
DW760306307,143400,76,18
DW760308613,143600,76,15
DW760309632,143700,76,19
DW760309634,143700,76,19
DW760314327,144100,76,18
DW760314328,144100,76,22
DW760314329,144100,76,24
DW760314330,144100,76,17
DW760322523,145000,76,26
DW760322524,145000,76,25
DW760323983,145100,76,50
DW760326002,145400,76,20
DW760329337,145900,76,20
DW760329339,145900,76,20
DW760340450,147100,76,28
DW760340451,147100,76,19
DW760340452,147100,76,13
DW760341884,147200,76,20
DW760342898,147500,76,39
DW760344810,147900,76,78
DW760353329,149000,76,52
DW760355187,149200,76,66
DW760356808,149400,76,16
DW760356809,149400,76,28
DW760356810,149400,76,16
DW760356811,149400,76,19
DW760356812,149400,76,23
DW760357509,149600,76,55
DW760359739,149800,76,21
DW760361733,150100,76,24
DW760361735,150100,76,20
DW760361736,150100,76,20
DW760361737,150100,76,17
DW760361738,150100,76,17
DW760371016,151200,76,17
DW760371017,151200,76,25
DW760373506,151400,76,196
DW760373507,151400,76,20
DW760374516,151500,76,33
DW760381688,152400,76,23
DW760382586,152700,76,33
DW760383370,152800,76,23
DW760383371,152800,76,22
DW760394383,154100,76,27
DW760396979,154400,76,20
DW760396980,154400,76,67
DW760401271,154900,76,18
DW760413745,156500,76,16
DW760417093,157000,76,20
DW760420742,157600,76,589
DW760424205,158000,76,19
DW760424207,158000,76,29
DW760432407,159100,76,14
DW760439840,160100,76,21
DW760440921,160200,76,72
DW760443650,160500,76,29
DW760443651,160500,76,19
DW760446346,160800,76,20
DW760446347,160800,76,28
DW760452818,161600,76,20
DW760454343,161900,76,27
DW760455041,162000,76,35
DW760456593,162200,76,28
DW760456594,162200,76,23
DW760458525,162500,76,18
DW760458925,162600,76,57
DW760481826,165500,76,21
DW760483095,165700,76,50
DW110012668,168500,11,24
DW120006288,169400,12,14
DW130001339,169800,13,24
DW130007186,170800,13,352
DW130008483,171100,13,20
DW130012125,171500,13,17
DW130018108,172300,13,60
DW130023059,173200,13,49
DW160011280,176500,16,26
DW160023342,177800,16,75
DW160024828,177900,16,33
DW160028928,178200,16,23
DW160030010,178300,16,24
DW160030680,178400,16,40
DW160035461,179200,16,20
DW160035462,179200,16,430
DW160035463,179200,16,50
DW160037019,179400,16,86
DW160038340,179500,16,63
DW160039563,179600,16,20
DW160040854,179700,16,21
DW160040856,179700,16,23
DW160041476,179800,16,20
DW160042696,179900,16,39
DW160043312,180000,16,16
DW170001517,181600,17,25
DW170001518,181600,17,16
DW170001519,181600,17,19
DW170001520,181600,17,25
DW170001521,181600,17,17
DW170002465,181800,17,17
DW170004419,182400,17,19
DW170004420,182400,17,30
DW170007900,182800,17,27
DW170012466,183700,17,21
DW170013329,183800,17,19
DW170016401,184300,17,37
DW170017149,184400,17,16
DW180003450,185700,18,261
DW190005625,186400,19,16
DW190005626,186400,19,21
DW200002186,187300,20,19
DW210007317,188800,21,17
DW210007319,188800,21,17
DW210011084,189200,21,18
DW210012378,189500,21,148
DW220002225,190400,22,19
DW220007910,191000,22,18
DW220013681,191900,22,27
DW220014489,192000,22,27
DW230030047,195500,23,19
DW230030049,195500,23,15
DW230038186,196500,23,30
DW240008453,199200,24,21
DW240011430,199800,24,28
DW240011431,199800,24,26
DW240011432,199800,24,18
DW240012729,200100,24,30
DW240016780,200700,24,20
DW240019816,201200,24,24
DW250006114,202700,25,20
DW250010757,203200,25,20
DW270002984,204500,27,15
DW280005348,205600,28,27
DW280013293,206900,28,14
DW280013294,206900,28,15
DW280013297,206900,28,18
DW290002533,207800,29,23
DW300002509,208300,30,20
DW300002510,208300,30,61
DW300002511,208300,30,51
DW300002926,208400,30,31
DW300002927,208400,30,27
DW300003138,208500,30,283
DW300003397,208600,30,26
DW300007690,209400,30,66
DW300009075,209600,30,66
DW300009076,209600,30,37
DW300010013,209700,30,162
DW300012998,210000,30,18
DW300012999,210000,30,21
DW300014437,210300,30,60
DW300014831,210400,30,20
DW300017512,210800,30,22
DW300017513,210800,30,20
DW300018442,210900,30,20
DW300024955,211800,30,166
DW300027080,212100,30,21
DW310000757,212300,31,17
DW310000758,212300,31,17
DW310000759,212300,31,30
DW310000760,212300,31,30
DW310004176,213100,31,61
DW310005203,213200,31,20
DW310005205,213200,31,57
DW310006303,213300,31,27
DW310008258,213500,31,25
DW310010033,213700,31,13
DW310010034,213700,31,23
DW310010035,213700,31,18
DW320000325,215500,32,25
DW320000326,215500,32,28
DW320004704,216000,32,15
DW320004706,216000,32,18
DW330005826,216900,33,21
DW330008883,217300,33,20
DW330012100,217500,33,265
DW330019017,218300,33,146
DW330025586,218900,33,20
DW340002042,220100,34,24
DW360004580,223200,36,104
DW370002691,223700,37,27
DW370002692,223700,37,20
DW370009719,224800,37,22
DW370009720,224800,37,17
DW370010836,225000,37,123
DW370015609,225600,37,212
DW370016636,225800,37,32
DW390001726,227300,39,115
DW390009184,228400,39,20
DW390009185,228400,39,27
DW400000661,228800,40,27
DW400002571,229200,40,28
DW400002572,229200,40,23
DW400006485,229600,40,19
DW400007558,229800,40,20
DW400008481,229900,40,21
DW400008482,229900,40,13
DW400009267,230000,40,23
DW400010174,230100,40,26
DW400013769,230500,40,80
DW400014172,230600,40,78
DW400015415,230700,40,22
DW400015416,230700,40,26
DW400021944,231400,40,22
DW400021945,231400,40,23
DW400025860,231900,40,32
DW400025861,231900,40,26
DW400025862,231900,40,32
DW400025863,231900,40,14
DW400025864,231900,40,19
DW400025865,231900,40,17
DW400025866,231900,40,20
DW400025867,231900,40,22
DW400025868,231900,40,15
DW400025869,231900,40,15
DW400026828,232100,40,702
DW400030601,232700,40,20
DW400030602,232700,40,218
DW410004549,233300,41,18
DW410004551,233300,41,25
DW410004552,233300,41,23
DW410006053,233600,41,18
DW410006054,233600,41,15
DW420004800,234700,42,20
DW420006596,234900,42,21
DW420010294,235500,42,19
DW420011055,235600,42,20
DW420011056,235600,42,27
DW420011621,235700,42,47
DW420012274,235800,42,20
DW430006639,237000,43,23
DW430006641,237000,43,15
DW430009723,237300,43,23
DW430011480,237500,43,24
DW430015935,237900,43,37
DW430019011,238300,43,26
DW430019826,238400,43,63
DW440007208,239900,44,20
DW440007209,239900,44,80
DW440016368,240900,44,33
DW450001756,241400,45,20
DW450001758,241400,45,66
DW450005967,241800,45,21
DW450007204,241900,45,123
DW450008417,242000,45,20
DW450008418,242000,45,50
DW450009926,242200,45,684
DW460008584,244200,46,18
DW460008585,244200,46,17
DW460008586,244200,46,18
DW460017736,245100,46,81
DW470003623,247800,47,54
DW470013775,248900,47,18
DW470013777,248900,47,19
DW470013778,248900,47,19
DW470028923,250400,47,84
DW470032529,250800,47,27
DW470034606,251000,47,348
DW470036782,251200,47,17
DW470036783,251200,47,20
DW470036784,251200,47,23
DW470037184,251300,47,237
DW470038265,251400,47,558
DW470038266,251400,47,50
DW470040577,251600,47,391
DW470040578,251600,47,20
DW470041830,251700,47,310
DW470041831,251700,47,20
DW470045306,252000,47,20
DW470045307,252000,47,247
DW470048572,252400,47,20
DW470048573,252400,47,54
DW470048574,252400,47,62
DW470048575,252400,47,35
DW470050385,252500,47,36
DW470051785,252700,47,21
DW470054918,253000,47,19
DW470054919,253000,47,20
DW470058322,253300,47,20
DW470060834,253600,47,22
DW470060835,253600,47,23
DW480000346,255300,48,30
DW480001223,255500,48,24
DW480001875,255600,48,21
DW480004388,256000,48,15
DW480004390,256000,48,17
DW480005200,256100,48,15
DW490001781,256900,49,20
DW490002218,257000,49,39
DW510002173,300600,51,36
DW510003236,300800,51,33
DW510006376,301200,51,20
DW510007598,301300,51,17
DW510007600,301300,51,24
DW510012832,302400,51,41
DW510012834,302400,51,53
DW520000673,303600,52,63
DW520005246,304400,52,18
DW520005247,304400,52,24
DW520007618,304700,52,21
DW520007619,304700,52,21
DW520011467,305100,52,20
DW530005421,307000,53,24
DW530007484,307300,53,152
DW530007854,307400,53,19
DW530007855,307400,53,29
DW530009104,307500,53,20
DW530014143,308100,53,27
DW530017559,308500,53,23
DW560005438,311100,56,582
DW570002380,311500,57,22
DW590001532,313200,59,17
DW590011121,314600,59,18
DW590011123,314600,59,22
DW590011124,314600,59,18
DW590011125,314600,59,16
DW590017334,315600,59,17
DW590017335,315600,59,28
DW590018123,315700,59,23
DW600000175,316500,60,436
DW600000176,316500,60,20
DW600000177,316500,60,50
DW600011962,318100,60,30
DW600018459,319000,60,81
DW600030102,320300,60,22
DW600032233,320600,60,17
DW600032234,320600,60,25
DW600033285,320700,60,96
DW600034359,320800,60,40
DW600035288,320900,60,20
DW600038730,321200,60,1111
DW600038731,321200,60,20
DW600041109,321400,60,50
DW600042770,321600,60,26
DW600042771,321600,60,19
DW600045649,321900,60,132
DW600046142,322000,60,75
DW600048136,322200,60,62
DW600051042,322700,60,20
DW600055041,323200,60,36
DW600057508,323400,60,19
DW600066929,324600,60,20
DW600066931,324600,60,58
DW600068421,324800,60,23
DW600069536,325000,60,54
DW600074434,325400,60,50
DW600074451,325500,60,59
DW600076143,325700,60,20
DW600077273,325800,60,18
DW600079413,326100,60,20
DW600085678,327000,60,21
DW600088196,327300,60,30
DW600124322,331100,60,39
DW600138200,333500,60,99
DW620005441,334500,62,147
DW620006378,334700,62,429
DW620008308,335000,62,51
DW620017762,336000,62,50
DW620017763,336000,62,56
DW620017764,336000,62,20
DW630010976,338300,63,25
DW630010977,338300,63,24
DW640002851,339000,64,34
DW640002852,339000,64,18
DW640005067,339300,64,14
DW640010346,340100,64,21
DW650000385,341500,65,99
DW680004674,343900,68,54
DW680007067,344200,68,20
DW680007812,344400,68,28
DW680007813,344400,68,24
DW690000898,344800,69,22
DW690002037,344900,69,30
DW690004368,345300,69,35
DW700005778,347400,70,27
DW700007512,347800,70,59
DW700009460,348200,70,34
DW710005956,349800,71,81
DW710008460,350000,71,20
DW710015097,351000,71,23
DW710017656,351300,71,141
DW710019027,351500,71,114
DW710020198,351600,71,175
DW710022684,352000,71,335
DW710022685,352000,71,20
DW710022686,352000,71,50
DW710024412,352200,71,20
DW710024413,352200,71,179
DW710025600,352400,71,50
DW710025601,352400,71,257
DW710028129,352800,71,30
DW710029534,353100,71,1132
DW710029949,353200,71,319
DW710031759,353400,71,88
DW710031760,353400,71,20
DW710032661,353500,71,21
DW710034132,353800,71,16
DW710034134,353800,71,22
DW710037424,354400,71,18
DW710040901,354800,71,22
DW710046651,355500,71,15
DW710046652,355500,71,18
DW720003229,356200,72,223
DW720004691,356400,72,20
DW730001344,357500,73,30
DW750000581,360500,75,22
DW750003009,360700,75,142
DW750004979,361000,75,20
DW750004980,361000,75,64
DW750004981,361000,75,58
DW750004983,361000,75,62
DW750004984,361000,75,37
DW750018222,362600,75,20
DW750020076,362900,75,33
DW760380265,152200,76,24
DW370004649,224100,37,60
DW230018211,194300,23,30
DW760144946,127200,76,96
DW330019018,218300,33,22
DW600021734,319400,60,39
DW520015327,305600,52,50
DW230004761,193000,23,120
DW690008733,345800,69,14
DW760372560,151300,76,41
DW760286935,141700,76,14
DW760173138,130200,76,14
DW470030823,250600,47,98
DW710036663,354200,71,93
DW230022591,194800,23,90
DW600044875,321800,60,121
DW600057509,323400,60,102
DW600036694,321000,60,87
DW530015206,308200,53,84
DW520016366,305800,52,81
DW760439839,160100,76,115
DW220005443,190600,22,76
DW760458524,162500,76,90
DW160028929,178200,16,92
DW480005199,256100,48,21
DW370004648,224100,37,69
DW300024954,211800,30,66
DW330024253,218700,33,65
DW450009927,242200,45,63
DW350010481,222200,35,22
DW130012124,171500,13,77
DW710037425,354400,71,81
DW760424206,158000,76,84
DW600036695,321000,60,109
DW450005966,241800,45,58
DW600111660,329700,60,55
DW020010193,106100,02,55
DW760329338,145900,76,81
DW280013296,206900,28,75
DW760103795,123100,76,24
DW120006287,169400,12,56
DW600068422,324800,60,74
DW240008452,199200,24,55
DW760272877,140200,76,60
DW030003859,109300,03,52
DW370002689,223700,37,79
DW600043923,321700,60,140
DW710015098,351000,71,63
DW760012943,112200,76,68
DW370009721,224800,37,60
DW710020199,351600,71,50
DW470051784,252700,47,60
DW030003860,109300,03,57
DW160041477,179800,16,74
DW760417092,157000,76,54
DW470053670,252900,47,49
DW370011741,225100,37,56
DW420010293,235500,42,65
DW600048137,322200,60,36
DW430009724,237300,43,60
DW300012997,210000,30,50
DW120006289,169400,12,50
DW230030048,195500,23,69
DW760483094,165700,76,123
DW210007318,188800,21,47
DW590001531,313200,59,61
DW210007316,188800,21,70
DW760026586,114000,76,60
DW760150593,127900,76,60
DW750002009,360600,75,46
DW760460288,162800,76,46
DW150006871,174200,15,46
DW170002464,181800,17,78
DW330005825,216900,33,55
DW760237555,136600,76,64
DW760113386,124000,76,52
DW600079410,326100,60,97
DW520016367,305800,52,124
DW170012467,183700,17,54
DW510007599,301300,51,56
DW130008484,171100,13,56
DW530009106,307500,53,156
DW370011740,225100,37,49
DW390007174,228100,39,80
DW280005011,205500,28,44
DW760018944,112900,76,44
DW600030101,320300,60,56
DW760248175,137800,76,43
DW160040857,179700,16,59
DW560002419,310300,56,42
DW220007909,191000,22,50
DW760018943,112900,76,50
DW710038200,354500,71,56
DW170017150,184400,17,60
DW600107523,329200,60,41
DW150012560,175000,15,41
DW390009990,228500,39,49
DW590011122,314600,59,57
DW600079411,326100,60,87
DW760353328,149000,76,106
DW640010345,340100,64,42
DW600044876,321800,60,100
DW600044877,321800,60,40
DW410006055,233600,41,60
DW600034358,320800,60,94
DW760233555,136300,76,50
DW750003010,360700,75,40
DW600021733,319400,60,40
DW330021942,218500,33,24
DW600071364,325200,60,66
DW130023060,173200,13,107
DW420012275,235800,42,51
DW720004692,356400,72,45
DW760273891,140300,76,39
DW760306306,143400,76,40
DW760140159,126700,76,40
DW170007899,182800,17,57
DW400013768,230500,40,38
DW230016153,194000,23,38
DW160043313,180000,16,49
DW330012099,217500,33,94
DW760325956,145300,76,235
DW470054917,253000,47,45
DW220005442,190600,22,60
DW330010667,217400,33,60
DW760048462,116900,76,52
DW280013295,206900,28,50
DW760481825,165500,76,44
DW520008922,304800,52,115
DW760432406,159100,76,51
DW710034133,353800,71,40
DW330025587,218900,33,40
DW340002041,220100,34,49
DW760223728,135200,76,67
DW170013330,183800,17,47
DW120006286,169400,12,56
DW760296529,142600,76,99
DW400007557,229800,40,45
DW760047365,116800,76,52
DW200002185,187300,20,52
DW020019536,107100,02,57
DW480001876,255600,48,48
DW400008480,229900,40,48
DW760452817,161600,76,55
DW330017540,218100,33,53
DW600077274,325800,60,53
DW760162898,129200,76,90
DW710046655,355500,71,44
DW190005627,186400,19,51
DW760296528,142600,76,35
DW230003493,192900,23,35
DW190003367,186000,19,35
DW760308614,143600,76,47
DW760020371,113000,76,45
DW310010036,213700,31,45
DW760341886,147200,76,81
DW760034558,115100,76,43
DW400010175,230100,40,48
DW230015028,193800,23,34
DW110012667,168500,11,51
DW600034357,320800,60,112
DW460014365,244800,46,110
DW760295108,142400,76,52
DW420004799,234700,42,57
DW460005632,243900,46,85
DW160030681,178400,16,100
DW020022625,107500,02,40
DW760088882,121600,76,45
DW310005206,213200,31,40
DW210011083,189200,21,40
DW600051041,322700,60,78
DW220016215,192100,22,33
DW710007195,349900,71,33
DW760190803,131900,76,89
DW400009266,230000,40,51
DW430006640,237000,43,41
DW570002381,311500,57,41
DW600107524,329200,60,103
DW600077272,325800,60,49
DW530009107,307500,53,62
DW430011481,237500,43,44
DW750000580,360500,75,57
DW300022777,211500,30,161
DW170010478,183400,17,26
DW020005467,105500,02,73
DW740004204,360200,74,60
DW490001782,256900,49,42
DW400016690,230800,40,42
DW760161475,129100,76,58
DW760357506,149500,76,24
DW710024414,352200,71,80
DW220002224,190400,22,43
DW690000899,344800,69,46
DW280005010,205500,28,117
DW590018122,315700,59,49
DW290002534,207800,29,41
DW760156026,128500,76,102
DW600097695,328200,60,89
DW330007843,217200,33,112
DW270002983,204500,27,42
DW760150590,127900,76,45
DW750016786,362400,75,121
DW600048135,322200,60,31
DW690006092,345500,69,48
DW760078133,120400,76,48
DW600051039,322700,60,88
DW710018099,351400,71,37
DW760452195,161500,76,60
DW010018616,103700,01,46
DW110001294,166700,11,29
DW170014750,184000,17,29
DW680007066,344200,68,93
DW600017651,318900,60,32
DW600076142,325700,60,38
DW240019817,201200,24,41
DW230022592,194800,23,41
DW020032601,109000,02,91
DW240016781,200700,24,236
DW580004958,312900,58,42
DW530015205,308200,53,57
DW390010657,228600,39,27
DW330019019,218300,33,30
DW760271709,140100,76,27
DW600066932,324600,60,36
DW430008600,237200,43,30
DW760166915,129600,76,45
DW330010666,217400,33,30
DW470006579,248100,47,36
DW760005427,111100,76,85
DW410004550,233300,41,49
DW760401272,154900,76,46
DW300022778,211500,30,74
DW760367865,150700,76,31
DW600124323,331100,60,93
DW300018441,210900,30,62
DW130023061,173200,13,87
DW760073273,119900,76,75
DW480004391,256000,48,47
DW390005177,227900,39,44
DW630008315,337800,63,110
DW020018081,106900,02,88
DW420011054,235600,42,41
DW760243688,137300,76,41
DW760144555,127100,76,79
DW310008259,213500,31,38
DW630011764,338400,63,35
DW460013217,244700,46,144
DW760381689,152400,76,45
DW510006375,301200,51,74
DW250007372,202800,25,29
DW760025095,113900,76,29
DW480007591,256300,48,29
DW760427797,158400,76,72
DW250010756,203200,25,36
DW320004705,216000,32,43
DW760227747,135600,76,103
DW160011281,176500,16,40
DW430007680,237100,43,30
DW710008461,350000,71,40
DW700003196,346800,70,30
DW160036700,179300,16,30
DW710040902,354800,71,41
DW230016770,194100,23,89
DW760305241,143300,76,97
DW760307784,143500,76,139
DW510012833,302400,51,91
DW420006595,234900,42,42
DW400016689,230800,40,39
DW760309633,143700,76,43
DW110004248,167100,11,54
DW160039562,179600,16,170
DW760398527,154700,76,152
DW760240347,136900,76,55
DW230015030,193800,23,92
DW760285163,141500,76,84
DW470058324,253300,47,54
DW760455040,162000,76,90
DW760204266,133100,76,67
DW760020370,113000,76,36
DW590009950,314500,59,28
DW760086831,121400,76,40
DW700004406,347000,70,52
DW760303093,143100,76,32
DW130013392,171600,13,36
DW710036664,354200,71,78
DW710046654,355500,71,33
DW760243048,137200,76,29
DW710046653,355500,71,29
DW520011468,305100,52,100
DW580004957,312900,58,21
DW760163961,129300,76,38
DW420011622,235700,42,76
DW760427796,158400,76,110
DW760285162,141500,76,26
DW760152897,128200,76,26
DW350007829,221800,35,78
DW300009074,209600,30,26
DW760077009,120300,76,74
DW020019216,107000,02,35
DW450001757,241400,45,88
DW400006486,229600,40,49
DW760306305,143400,76,36
DW600027988,320100,60,108
DW760274806,140400,76,36
DW760042135,116100,76,108
DW600066930,324600,60,81
DW360001507,222500,36,50
DW420001780,234200,42,50
DW600074435,325400,60,178
DW170006824,182700,17,92
DW510017856,303200,51,69
DW300007689,209400,30,92
DW760117144,124400,76,46
DW760094202,122200,76,46
DW470058323,253300,47,92
DW760107296,123400,76,75
DW760464287,163200,76,33
DW630005710,337400,63,99
DW160045745,180200,16,91
DW720006428,356600,72,72
DW760376494,151800,76,87
DW600041872,321500,60,49
DW240021114,201400,24,94
DW740004203,360200,74,25
DW020015293,106600,02,30
DW460008583,244200,46,35
DW170011844,183600,17,30
DW750004982,361000,75,30
DW600120933,330600,60,45
DW760335628,146500,76,97
DW430019825,238400,43,103
DW120004771,169200,12,68
DW760464288,163200,76,21
DW310005204,213200,31,74
DW600078134,325900,60,32
DW640012712,340400,64,64
DW520017694,305900,52,81
DW390009183,228400,39,38
DW760176931,130600,76,76
DW390008822,228300,39,158
DW760378689,152000,76,132
DW600100795,328500,60,66
DW470053671,252900,47,151
DW450008419,242000,45,112
DW600127378,331400,60,28
DW330013101,217600,33,40
DW760442866,160400,76,160
DW300010848,209800,30,69
DW600107525,329200,60,75
DW400001703,229000,40,104
DW370006639,224300,37,87
DW470030824,250600,47,70
DW690006091,345500,69,24
DW760256290,138500,76,24
DW210012372,189400,21,18
DW600082662,326700,60,80
DW550001705,309300,55,68
DW760127095,125500,76,143
DW240017580,200800,24,44
DW400022933,231500,40,57
DW730008896,358800,73,52
DW600116912,330200,60,26
DW740002909,359900,74,26
DW760192229,132000,76,26
DW760168128,129700,76,46
DW760341885,147200,76,66
DW160053166,181100,16,99
DW590006173,313900,59,152
DW430018054,238100,43,86
DW760474144,164500,76,60
DW760137170,126500,76,67
DW760059490,118100,76,74
DW700011060,348400,70,35
DW160040855,179700,16,28
DW250007373,202800,25,78
DW710010664,350400,71,71
DW470015641,249200,47,150
DW710040015,354700,71,50
DW600051040,322700,60,65
DW230018981,194400,23,29
DW760377524,151900,76,29
DW620002422,334000,62,29
DW280006549,205800,28,97
DW020008542,105900,02,142
DW600095744,327900,60,90
DW760413746,156500,76,30
DW330023023,218600,33,90
DW150012559,175000,15,98
DW480003724,255900,48,38
DW590020155,316000,59,61
DW750002007,360600,75,69
DW760257953,138700,76,23
DW760012011,111900,76,70
DW560002420,310300,56,70
DW480007589,256300,48,79
DW230015029,193800,23,56
DW640005068,339300,64,32
DW760278539,140800,76,24
DW760386648,153300,76,83
DW600122569,330900,60,83
DW760123908,125200,76,150
DW210010215,189100,21,75
DW020028349,108500,02,34
DW760401273,154900,76,26
DW530009105,307500,53,61
DW680004673,343900,68,79
DW020012541,106400,02,88
DW640015300,340700,64,44
DW760025094,113900,76,106
DW110006856,167600,11,62
DW760178390,130700,76,27
DW590015545,315300,59,27
DW760272878,140200,76,18
DW400030600,232700,40,45
DW760460289,162800,76,73
DW760061919,118300,76,57
DW590008587,314200,59,40
DW760064413,118600,76,100
DW510017150,303100,51,30
DW760481827,165500,76,30
DW380003979,226700,38,30
DW470011755,248700,47,40
DW400011964,230300,40,60
DW760290879,142000,76,60
DW250006113,202700,25,61
DW220016216,192100,22,72
DW760173137,130200,76,31
DW760057731,117900,76,32
DW160026149,178000,16,96
DW310002639,212900,31,139
DW330024251,218700,33,76
DW530010125,307600,53,76
DW310018601,214900,31,33
DW010014519,103000,01,66
DW600036693,321000,60,55
DW460009958,244400,46,99
DW760480360,165400,76,150
DW760154069,128300,76,58
DW760012573,112100,76,35
DW760147400,127500,76,72
DW680003258,343700,68,24
DW330014344,217800,33,72
DW460007643,244100,46,75
DW760290880,142000,76,50
DW260002419,203900,26,50
DW480007590,256300,48,63
DW440013991,240600,44,101
DW600051850,322900,60,102
DW310015120,214500,31,39
DW760152898,128200,76,92
DW710013368,350900,71,53
DW600041108,321400,60,134
DW440003871,239200,44,81
DW350004347,221200,35,41
DW710047553,355600,71,55
DW110008711,167800,11,70
DW430013459,237600,43,140
DW750018221,362600,75,74
DW020010194,106100,02,74
DW470003622,247800,47,60
DW600079412,326100,60,64
DW760460290,162800,76,48
DW470013776,248900,47,33
DW760259288,138900,76,50
DW230022593,194800,23,67
DW750012072,361700,75,102
DW470059468,253500,47,35
DW350007081,221700,35,71
DW470061898,253700,47,89
DW760248177,137800,76,72
DW180002420,185500,18,37
DW460014364,244800,46,58
DW230029065,195400,23,117
DW590007236,314000,59,80
DW600102800,328700,60,80
DW760043921,116400,76,60
DW640009618,340000,64,83
DW600136054,332700,60,63
DW680004672,343900,68,21
DW710007196,349900,71,64
DW640011742,340300,64,86
DW230018980,194400,23,22
DW020005468,105500,02,66
DW760259287,138900,76,45
DW600111661,329700,60,125
DW600089373,327400,60,78
DW480004389,256000,48,27
DW530004349,306800,53,28
DW340003675,220400,34,29
DW760266758,139700,76,29
DW760361734,150100,76,29
DW150006872,174200,15,59
DW430008599,237200,43,89
DW750011003,361600,75,31
DW430019010,238300,43,32
DW760052648,117400,76,139
DW760399740,154800,76,35
DW760263828,139400,76,35
DW720005770,356500,72,35
DW760007771,111300,76,37
DW330008882,217300,33,80
DW230016154,194000,23,81
DW010004510,100800,01,92
DW440007978,240000,44,58
DW630009318,338100,63,58
DW760264621,139500,76,122
DW760323984,145100,76,190
DW630010207,338200,63,64
DW330024252,218700,33,65
DW760248176,137800,76,70
DW760070677,119600,76,70
DW640012711,340400,64,70
DW230003494,192900,23,153
DW190003368,186000,19,81
DW600035287,320900,60,144
DW600078133,325900,60,25
DW760100398,122800,76,96
DW460015554,244900,46,87
DW220016217,192100,22,65
DW740001771,359800,74,79
DW750002008,360600,75,88
DW710018098,351400,71,27
DW760017019,112700,76,147
DW310014273,214400,31,27
DW370002690,223700,37,21
DW660003308,342800,66,63
DW400023711,231600,40,30
DW710021946,351900,71,124
