sex,ethnicity,age_band,triple_count_total,dwelling_assigned
F,MaoriPacific,0-14,15993,Y
M,MaoriPacific,0-14,16881,Y
M,MaoriPacific,15-29,8124,Y
M,Pacific,30-59,44073,Y
F,Maori,30-59,113154,Y
F,Other,15-29,306633,Y
F,Other,30-59,721068,Y
M,Other,60+,396021,Y
F,Other,60+,444858,Y
F,Maori,15-29,71391,Y
F,Pacific,30-59,47535,Y
M,Maori,0-14,90201,Y
M,Maori,60+,31053,Y
M,Maori,30-59,96204,Y
F,Maori,60+,36924,Y
F,Maori,0-14,85794,Y
M,Other,30-59,665346,Y
M,Maori,15-29,68481,Y
M,Other,0-14,289761,Y
M,MaoriPacific,60+,513,Y
F,Other,0-14,276078,Y
M,Other,15-29,312321,Y
F,Pacific,15-29,35007,Y
M,Pacific,60+,12669,Y
F,MaoriPacific,15-29,8478,Y
F,Pacific,60+,14556,Y
F,MaoriPacific,60+,591,Y
M,MaoriPacific,30-59,4314,Y
F,Pacific,0-14,35841,Y
M,Pacific,15-29,33957,Y
F,MaoriPacific,30-59,5181,Y
F,Maori,0-14,16047,N
M,Pacific,0-14,7737,N
F,MaoriPacific,0-14,3309,N
M,Other,0-14,12216,N
F,Other,0-14,11430,N
M,Maori,0-14,17076,N
M,MaoriPacific,0-14,3717,N
F,Pacific,0-14,7215,N
F,Pacific,15-29,6951,N
F,Other,15-29,41046,N
F,Maori,15-29,15087,N
M,Maori,15-29,18291,N
M,Pacific,15-29,9597,N
M,MaoriPacific,15-29,1863,N
M,Other,15-29,51270,N
M,Other,30-59,65001,N
F,Pacific,30-59,6978,N
M,Pacific,30-59,11355,N
M,MaoriPacific,30-59,891,N
F,Maori,30-59,15792,N
F,Other,30-59,47460,N
M,Maori,30-59,22410,N
M,Other,60+,29997,N
F,Maori,60+,3258,N
F,Other,60+,31455,N
M,Maori,60+,3618,N
F,MaoriPacific,15-29,1764,N
F,MaoriPacific,30-59,690,N
M,Pacific,0-14,37797,Y
M,Pacific,60+,1500,N
M,MaoriPacific,60+,54,N
F,MaoriPacific,60+,51,N
F,Pacific,60+,1431,N
