ur_ta,sex,ethnicity,age_band,triple_count_total
1,M,MaoriPacific,0-14,531
1,F,MaoriPacific,0-14,537
1,M,MaoriPacific,15-29,213
1,M,Pacific,30-59,297
1,F,Maori,30-59,5433
1,F,Other,15-29,1698
1,F,Other,30-59,6240
1,M,Other,60+,6582
1,F,Other,60+,6111
1,F,Maori,15-29,2979
1,F,Pacific,30-59,237
1,M,Maori,0-14,4461
1,M,Maori,60+,2013
1,M,Maori,30-59,4977
1,F,Maori,60+,2472
1,F,Maori,0-14,4275
1,M,Other,30-59,5958
1,M,Maori,15-29,3051
1,M,Other,0-14,2049
1,M,MaoriPacific,60+,15
1,F,Other,0-14,1911
1,M,Other,15-29,1920
1,F,Pacific,15-29,102
1,M,Pacific,60+,96
1,F,MaoriPacific,15-29,237
1,F,Pacific,60+,87
1,F,MaoriPacific,60+,24
1,M,MaoriPacific,30-59,126
1,F,Pacific,0-14,165
1,M,Pacific,15-29,150
1,F,MaoriPacific,30-59,150
1,M,Pacific,0-14,150
2,M,Other,30-59,11400
2,M,Other,0-14,4812
2,F,MaoriPacific,0-14,507
2,F,Maori,0-14,3939
2,M,Maori,15-29,2967
2,F,Maori,15-29,2919
2,F,Maori,30-59,4548
2,M,Maori,30-59,4239
2,F,Other,30-59,12330
2,F,Other,0-14,4692
2,F,Other,15-29,4050
2,F,Other,60+,10557
2,M,Other,60+,9663
2,M,Maori,0-14,4155
2,F,Maori,60+,1536
2,M,MaoriPacific,60+,9
2,M,Maori,60+,1266
2,M,Other,15-29,4326
2,M,MaoriPacific,0-14,474
2,M,Pacific,30-59,357
2,F,Pacific,15-29,204
2,M,MaoriPacific,30-59,132
2,F,Pacific,30-59,318
2,M,Pacific,15-29,213
2,M,Pacific,60+,81
2,M,MaoriPacific,15-29,219
2,F,MaoriPacific,15-29,234
2,F,MaoriPacific,30-59,165
2,M,Pacific,0-14,267
2,F,Pacific,0-14,273
2,F,MaoriPacific,60+,24
2,F,Pacific,60+,87
3,F,Other,30-59,3111
3,M,Other,60+,3045
3,F,Other,60+,2997
3,M,Other,30-59,3036
3,M,Maori,15-29,570
3,F,Other,15-29,981
3,M,Maori,0-14,840
3,M,Maori,30-59,861
3,F,Maori,30-59,954
3,M,Maori,60+,378
3,F,MaoriPacific,0-14,78
3,F,Pacific,30-59,81
3,F,Pacific,60+,33
3,F,Maori,60+,405
3,M,Other,0-14,1245
3,F,Other,0-14,1191
3,F,Maori,0-14,780
3,M,Other,15-29,1080
3,F,Pacific,0-14,93
3,F,Maori,15-29,528
3,M,Pacific,0-14,96
3,F,MaoriPacific,30-59,15
3,M,Pacific,15-29,72
3,M,MaoriPacific,0-14,96
3,M,Pacific,60+,30
3,M,Pacific,30-59,102
3,M,MaoriPacific,60+,6
3,F,Pacific,15-29,54
3,F,MaoriPacific,15-29,33
3,M,MaoriPacific,30-59,27
3,F,MaoriPacific,60+,6
3,M,MaoriPacific,15-29,36
11,M,Other,30-59,3744
11,F,Other,60+,5556
11,F,Other,30-59,4275
11,M,MaoriPacific,60+,6
11,F,MaoriPacific,60+,6
11,M,Other,60+,5391
11,F,Maori,30-59,927
11,F,Maori,15-29,522
11,F,Maori,60+,474
11,M,Other,0-14,1365
11,M,Maori,15-29,537
11,M,Maori,30-59,852
11,M,Pacific,0-14,57
11,M,Other,15-29,1248
11,M,Maori,0-14,774
11,F,Maori,0-14,753
11,F,Pacific,0-14,39
11,M,Pacific,60+,24
11,M,Maori,60+,390
11,F,Other,0-14,1377
11,M,MaoriPacific,0-14,66
11,F,MaoriPacific,30-59,18
11,F,Other,15-29,1086
11,F,MaoriPacific,0-14,54
11,M,MaoriPacific,30-59,24
11,F,Pacific,15-29,36
11,M,Pacific,15-29,48
11,F,Pacific,30-59,69
11,F,Pacific,60+,42
11,M,MaoriPacific,15-29,30
11,F,MaoriPacific,15-29,33
11,M,Pacific,30-59,72
12,F,Other,30-59,2805
12,M,Maori,60+,252
12,F,Other,60+,2874
12,M,Maori,15-29,450
12,F,Maori,30-59,792
12,M,Other,30-59,2649
12,M,Other,60+,2730
12,F,Maori,15-29,450
12,F,Maori,0-14,702
12,M,Other,0-14,1068
12,M,Maori,0-14,702
12,M,Maori,30-59,690
12,F,Maori,60+,288
12,F,Other,0-14,1038
12,F,Other,15-29,903
12,M,Other,15-29,1038
12,F,MaoriPacific,0-14,63
12,M,MaoriPacific,30-59,24
12,F,Pacific,30-59,57
12,M,Pacific,60+,21
12,F,MaoriPacific,60+,9
12,M,Pacific,0-14,60
12,M,Pacific,15-29,30
12,F,Pacific,15-29,24
12,M,Pacific,30-59,57
12,F,Pacific,0-14,39
12,M,MaoriPacific,15-29,36
12,F,MaoriPacific,30-59,27
12,M,MaoriPacific,0-14,72
12,M,MaoriPacific,60+,6
12,F,MaoriPacific,15-29,30
12,F,Pacific,60+,39
13,F,Other,0-14,4998
13,F,Other,30-59,11751
13,M,Other,0-14,5352
13,F,Other,15-29,4044
13,M,Other,30-59,11502
13,M,Other,60+,6072
13,M,Other,15-29,4284
13,F,Other,60+,5781
13,F,Maori,0-14,2964
13,F,Maori,30-59,3372
13,F,Maori,60+,1011
13,M,Maori,30-59,3168
13,M,Maori,0-14,3081
13,M,Pacific,0-14,315
13,F,Pacific,0-14,270
13,M,Maori,15-29,2121
13,F,Pacific,30-59,309
13,M,MaoriPacific,15-29,159
13,F,MaoriPacific,30-59,111
13,F,Maori,15-29,2046
13,M,Pacific,30-59,402
13,M,Maori,60+,876
13,M,MaoriPacific,30-59,102
13,F,Pacific,60+,72
13,M,Pacific,15-29,237
13,F,Pacific,15-29,195
13,M,Pacific,60+,90
13,F,MaoriPacific,15-29,156
13,M,MaoriPacific,0-14,384
13,F,MaoriPacific,0-14,357
13,F,MaoriPacific,60+,12
13,M,MaoriPacific,60+,18
15,M,Other,0-14,2535
15,F,Other,30-59,5325
15,M,Other,30-59,5100
15,M,Other,15-29,2385
15,F,Other,15-29,2247
15,M,Other,60+,3921
15,F,Other,60+,4323
15,F,Other,0-14,2385
15,F,MaoriPacific,0-14,69
15,M,Pacific,0-14,75
15,F,Pacific,0-14,72
15,M,Maori,0-14,894
15,F,Maori,0-14,897
15,F,Maori,15-29,651
15,M,Maori,15-29,723
15,F,Maori,30-59,915
15,M,Maori,60+,252
15,M,Maori,30-59,822
15,M,MaoriPacific,0-14,72
15,F,Maori,60+,303
15,M,Pacific,15-29,54
15,M,Pacific,30-59,84
15,F,MaoriPacific,15-29,33
15,F,Pacific,30-59,63
15,M,MaoriPacific,30-59,24
15,F,Pacific,15-29,54
15,M,MaoriPacific,15-29,36
15,F,Pacific,60+,24
15,M,MaoriPacific,60+,999999
15,F,MaoriPacific,30-59,27
15,F,MaoriPacific,60+,9
15,M,Pacific,60+,21
16,F,Other,30-59,23634
16,M,Maori,30-59,5472
16,F,Other,60+,12774
16,M,Other,60+,10248
16,F,Other,0-14,9885
16,M,Other,0-14,10164
16,M,Other,15-29,13938
16,M,Maori,0-14,5547
16,F,Maori,0-14,5235
16,M,Other,30-59,22047
16,F,Maori,30-59,6111
16,F,Maori,15-29,5058
16,M,Maori,15-29,4833
16,F,Other,15-29,13536
16,M,Pacific,0-14,960
16,F,Pacific,0-14,972
16,M,Pacific,30-59,1143
16,F,Pacific,30-59,1083
16,F,Maori,60+,1518
16,M,Maori,60+,1173
16,F,MaoriPacific,0-14,774
16,M,Pacific,15-29,981
16,F,Pacific,15-29,972
16,M,Pacific,60+,243
16,M,MaoriPacific,0-14,879
16,F,MaoriPacific,60+,18
16,M,MaoriPacific,30-59,231
16,F,MaoriPacific,15-29,495
16,M,MaoriPacific,15-29,474
16,F,MaoriPacific,30-59,273
16,F,Pacific,60+,222
16,M,MaoriPacific,60+,18
17,M,Maori,0-14,1281
17,M,Other,30-59,8460
17,F,Maori,30-59,1347
17,M,Other,0-14,4218
17,F,Other,30-59,9165
17,F,Other,0-14,3984
17,M,Other,15-29,3717
17,F,Maori,15-29,855
17,M,Other,60+,5391
17,F,Other,60+,6273
17,F,Other,15-29,3531
17,M,Maori,15-29,933
17,M,Maori,30-59,1215
17,F,MaoriPacific,0-14,108
17,F,Pacific,15-29,69
17,F,Maori,0-14,1122
17,F,Maori,60+,447
17,M,Maori,60+,360
17,F,MaoriPacific,30-59,33
17,M,Pacific,15-29,69
17,F,Pacific,60+,30
17,F,MaoriPacific,60+,12
17,M,MaoriPacific,0-14,120
17,M,Pacific,0-14,87
17,M,MaoriPacific,15-29,42
17,F,Pacific,30-59,93
17,F,Pacific,0-14,75
17,M,Pacific,30-59,111
17,M,MaoriPacific,30-59,39
17,M,Pacific,60+,18
17,F,MaoriPacific,15-29,33
17,M,MaoriPacific,60+,999999
18,M,Other,60+,855
18,F,Other,60+,804
18,F,Maori,0-14,423
18,F,Maori,30-59,453
18,M,Maori,30-59,543
18,M,Maori,0-14,423
18,F,Other,30-59,1329
18,M,Maori,60+,183
18,M,Other,0-14,678
18,M,Other,30-59,1440
18,F,Maori,60+,201
18,F,Other,15-29,540
18,F,Maori,15-29,288
18,M,Pacific,15-29,27
18,M,Maori,15-29,426
18,F,MaoriPacific,60+,999999
18,M,Other,15-29,603
18,F,Other,0-14,684
18,F,MaoriPacific,0-14,21
18,M,MaoriPacific,0-14,15
18,M,MaoriPacific,15-29,18
18,M,MaoriPacific,30-59,12
18,F,Pacific,0-14,15
18,M,Pacific,0-14,24
18,M,Pacific,30-59,39
18,F,Pacific,60+,999999
18,M,MaoriPacific,60+,999999
18,F,Pacific,30-59,18
18,F,Pacific,15-29,12
18,F,MaoriPacific,30-59,999999
18,F,MaoriPacific,15-29,12
18,M,Pacific,60+,999999
19,M,Other,0-14,1074
19,M,Other,30-59,2610
19,F,Other,30-59,2601
19,F,Other,60+,2118
19,F,Other,0-14,1041
19,F,Other,15-29,948
19,M,Maori,30-59,1179
19,F,Maori,15-29,852
19,F,Maori,30-59,1368
19,M,Maori,60+,396
19,M,Other,15-29,1095
19,M,Maori,0-14,1167
19,M,Maori,15-29,870
19,F,Maori,0-14,1101
19,M,Other,60+,2058
19,M,Pacific,30-59,357
19,M,Pacific,60+,156
19,F,Maori,60+,489
19,F,Pacific,30-59,381
19,F,MaoriPacific,30-59,90
19,F,Pacific,0-14,240
19,M,Pacific,0-14,273
19,F,Pacific,15-29,225
19,M,MaoriPacific,0-14,318
19,F,MaoriPacific,0-14,315
19,F,Pacific,60+,156
19,M,MaoriPacific,60+,6
19,M,Pacific,15-29,222
19,M,MaoriPacific,15-29,132
19,F,MaoriPacific,15-29,141
19,M,MaoriPacific,30-59,75
19,F,MaoriPacific,60+,999999
20,M,MaoriPacific,0-14,45
20,F,Maori,30-59,768
20,M,Maori,60+,255
20,M,Other,15-29,360
20,M,Other,0-14,402
20,F,Other,15-29,342
20,M,Other,30-59,1017
20,F,Other,30-59,930
20,F,Other,0-14,372
20,M,Maori,30-59,669
20,F,Maori,0-14,552
20,M,Maori,15-29,459
20,F,Maori,15-29,453
20,M,Maori,0-14,603
20,F,Other,60+,723
20,F,Maori,60+,282
20,M,Other,60+,768
20,F,MaoriPacific,60+,999999
20,F,MaoriPacific,0-14,39
20,M,MaoriPacific,15-29,15
20,M,Pacific,30-59,39
20,F,MaoriPacific,30-59,6
20,M,MaoriPacific,30-59,12
20,F,MaoriPacific,15-29,12
20,F,Pacific,15-29,36
20,F,Pacific,30-59,36
20,F,Pacific,60+,6
20,F,Pacific,0-14,42
20,M,Pacific,0-14,30
20,M,Pacific,15-29,21
20,M,Pacific,60+,999999
21,M,Maori,30-59,1806
21,F,Maori,60+,705
21,F,Other,30-59,5073
21,M,Other,30-59,4917
21,M,Maori,60+,570
21,M,Other,60+,3861
21,F,Other,60+,4149
21,F,Other,0-14,1890
21,M,Other,0-14,2067
21,F,Maori,0-14,1554
21,M,Maori,0-14,1686
21,F,Maori,30-59,1983
21,F,Other,15-29,1659
21,M,Other,15-29,1830
21,F,Maori,15-29,1134
21,M,Maori,15-29,1134
21,F,MaoriPacific,30-59,48
21,F,Pacific,30-59,108
21,M,MaoriPacific,30-59,45
21,M,MaoriPacific,15-29,87
21,M,MaoriPacific,0-14,159
21,F,MaoriPacific,0-14,132
21,F,MaoriPacific,15-29,66
21,M,Pacific,30-59,135
21,F,Pacific,15-29,66
21,M,MaoriPacific,60+,9
21,F,Pacific,0-14,75
21,M,Pacific,15-29,96
21,M,Pacific,60+,33
21,F,Pacific,60+,36
21,M,Pacific,0-14,93
21,F,MaoriPacific,60+,999999
22,F,Other,30-59,7992
22,M,Other,30-59,7326
22,M,Other,60+,6555
22,F,Other,60+,6651
22,M,Other,15-29,3141
22,F,Maori,0-14,1341
22,M,Maori,0-14,1440
22,F,Maori,30-59,1710
22,M,Maori,30-59,1641
22,F,Maori,60+,651
22,F,Other,0-14,3060
22,F,Other,15-29,2553
22,M,Maori,60+,576
22,M,Maori,15-29,1062
22,F,Maori,15-29,1053
22,M,Other,0-14,3168
22,M,MaoriPacific,0-14,117
22,F,MaoriPacific,0-14,105
22,F,MaoriPacific,15-29,39
22,F,MaoriPacific,30-59,42
22,M,MaoriPacific,30-59,36
22,M,Pacific,60+,39
22,M,Pacific,15-29,120
22,F,Pacific,30-59,162
22,F,Pacific,0-14,150
22,M,MaoriPacific,60+,12
22,M,Pacific,30-59,189
22,M,MaoriPacific,15-29,45
22,M,Pacific,0-14,177
22,F,Pacific,60+,48
22,F,Pacific,15-29,108
22,F,MaoriPacific,60+,999999
23,M,Other,15-29,8655
23,F,Other,15-29,8073
23,M,Other,30-59,19755
23,F,Other,30-59,22380
23,F,Maori,0-14,3738
23,M,Other,0-14,9375
23,F,Other,60+,17712
23,M,Other,60+,14337
23,F,Other,0-14,8910
23,M,Maori,30-59,3933
23,F,Maori,30-59,4137
23,M,Pacific,60+,87
23,M,Maori,60+,1026
23,M,Maori,0-14,3912
23,F,Maori,15-29,2727
23,F,Maori,60+,1263
23,M,Pacific,30-59,501
23,M,Maori,15-29,2787
23,F,Pacific,30-59,414
23,M,MaoriPacific,0-14,408
23,F,MaoriPacific,0-14,381
23,M,MaoriPacific,30-59,123
23,F,Pacific,0-14,387
23,M,Pacific,15-29,339
23,F,Pacific,15-29,321
23,F,MaoriPacific,15-29,165
23,M,MaoriPacific,15-29,165
23,M,Pacific,0-14,447
23,F,Pacific,60+,102
23,M,MaoriPacific,60+,15
23,F,MaoriPacific,60+,15
23,F,MaoriPacific,30-59,111
24,F,Other,30-59,8667
24,M,Other,60+,5241
24,M,Other,30-59,8016
24,F,Maori,60+,1695
24,F,Other,15-29,3333
24,F,Other,60+,5793
24,F,Other,0-14,3054
24,F,Maori,0-14,3972
24,M,Maori,0-14,4224
24,F,Maori,15-29,3147
24,F,Maori,30-59,5121
24,M,Other,0-14,3330
24,M,Other,15-29,3534
24,M,Maori,15-29,3144
24,M,Maori,30-59,4353
24,M,Maori,60+,1344
24,F,Pacific,15-29,240
24,M,Pacific,0-14,294
24,F,Pacific,0-14,270
24,M,Pacific,30-59,423
24,F,Pacific,30-59,360
24,F,MaoriPacific,30-59,180
24,M,MaoriPacific,0-14,474
24,F,MaoriPacific,15-29,267
24,F,MaoriPacific,0-14,492
24,M,MaoriPacific,15-29,240
24,M,Pacific,60+,117
24,M,MaoriPacific,30-59,153
24,F,Pacific,60+,120
24,M,Pacific,15-29,246
24,M,MaoriPacific,60+,18
24,F,MaoriPacific,60+,21
25,M,Other,30-59,3417
25,F,Other,60+,3300
25,F,Other,15-29,1131
25,F,Other,30-59,3714
25,M,Other,0-14,1386
25,M,Other,60+,3063
25,F,Maori,0-14,2358
25,M,Maori,0-14,2508
25,F,Maori,15-29,1821
25,F,Maori,30-59,2943
25,M,Maori,30-59,2592
25,F,Other,0-14,1305
25,M,Maori,60+,999
25,F,Maori,60+,1113
25,M,Other,15-29,1254
25,M,Maori,15-29,1740
25,F,MaoriPacific,30-59,69
25,M,Pacific,30-59,69
25,F,Pacific,0-14,87
25,M,Pacific,15-29,30
25,F,Pacific,30-59,75
25,M,MaoriPacific,15-29,84
25,M,Pacific,60+,36
25,M,MaoriPacific,0-14,156
25,F,MaoriPacific,15-29,78
25,F,MaoriPacific,0-14,180
25,M,MaoriPacific,30-59,66
25,M,Pacific,0-14,39
25,F,Pacific,60+,30
25,F,Pacific,15-29,42
25,F,MaoriPacific,60+,15
25,M,MaoriPacific,60+,6
26,F,Maori,0-14,609
26,M,Maori,30-59,645
26,F,Maori,60+,300
26,M,Maori,60+,252
26,F,Maori,30-59,747
26,M,Maori,15-29,465
26,M,Other,0-14,147
26,M,Other,30-59,390
26,F,Maori,15-29,486
26,M,Other,60+,651
26,F,Pacific,60+,15
26,F,Other,60+,621
26,F,Other,0-14,141
26,F,Other,30-59,429
26,F,Other,15-29,117
26,M,Maori,0-14,681
26,M,MaoriPacific,0-14,63
26,F,MaoriPacific,0-14,63
26,F,MaoriPacific,15-29,21
26,M,MaoriPacific,30-59,18
26,M,Pacific,30-59,27
26,F,MaoriPacific,30-59,27
26,F,Pacific,0-14,999999
26,M,Other,15-29,141
26,M,MaoriPacific,15-29,30
26,F,Pacific,30-59,21
26,F,Pacific,15-29,999999
26,M,Pacific,0-14,6
26,M,Pacific,15-29,9
26,F,MaoriPacific,60+,999999
26,M,Pacific,60+,18
26,M,MaoriPacific,60+,999999
27,F,Other,30-59,588
27,F,Other,60+,660
27,M,Other,60+,726
27,M,Maori,0-14,831
27,F,Maori,0-14,843
27,M,Maori,15-29,561
27,F,Maori,15-29,579
27,M,Maori,30-59,912
27,F,Maori,30-59,1095
27,F,Maori,60+,486
27,M,Other,30-59,582
27,M,Other,0-14,141
27,M,Maori,60+,423
27,F,Other,15-29,165
27,M,Other,15-29,213
27,F,Other,0-14,147
27,M,MaoriPacific,0-14,51
27,M,Pacific,30-59,36
27,M,MaoriPacific,15-29,15
27,F,Pacific,0-14,15
27,F,Pacific,15-29,9
27,M,MaoriPacific,30-59,12
27,F,MaoriPacific,15-29,24
27,M,Pacific,0-14,18
27,M,Pacific,15-29,24
27,F,MaoriPacific,0-14,51
27,F,Pacific,30-59,24
27,M,Pacific,60+,12
27,F,MaoriPacific,30-59,21
27,F,Pacific,60+,999999
27,F,MaoriPacific,60+,999999
27,M,MaoriPacific,60+,999999
28,F,Maori,0-14,3504
28,M,Maori,0-14,3636
28,M,Maori,30-59,3879
28,F,Maori,30-59,4473
28,F,Other,30-59,4251
28,F,Maori,60+,1770
28,F,Other,0-14,1566
28,M,Other,30-59,4041
28,M,Maori,15-29,2658
28,M,Maori,60+,1515
28,F,Maori,15-29,2667
28,F,MaoriPacific,60+,9
28,F,Other,60+,3534
28,M,Other,60+,3288
28,M,MaoriPacific,0-14,306
28,F,MaoriPacific,0-14,285
28,M,MaoriPacific,30-59,78
28,M,MaoriPacific,15-29,132
28,M,Pacific,30-59,237
28,F,MaoriPacific,30-59,72
28,F,Pacific,0-14,150
28,M,Pacific,0-14,171
28,F,Pacific,30-59,198
28,M,Other,15-29,1575
28,F,Other,15-29,1356
28,F,MaoriPacific,15-29,141
28,M,MaoriPacific,60+,12
28,M,Other,0-14,1674
28,F,Pacific,15-29,102
28,M,Pacific,15-29,138
28,M,Pacific,60+,57
28,F,Pacific,60+,48
29,M,Other,60+,624
29,F,Other,30-59,501
29,F,Maori,0-14,747
29,F,Maori,15-29,579
29,M,Maori,15-29,534
29,F,Pacific,30-59,9
29,M,Maori,30-59,798
29,M,Pacific,30-59,27
29,F,Maori,60+,483
29,M,Other,15-29,189
29,M,Maori,60+,426
29,F,Other,15-29,141
29,M,Maori,0-14,771
29,F,Maori,30-59,969
29,M,Other,30-59,519
29,F,Other,60+,486
29,F,Other,0-14,150
29,M,Other,0-14,177
29,M,MaoriPacific,0-14,60
29,M,MaoriPacific,15-29,18
29,M,MaoriPacific,30-59,18
29,M,Pacific,15-29,21
29,F,MaoriPacific,0-14,48
29,F,MaoriPacific,15-29,21
29,F,MaoriPacific,30-59,18
29,F,Pacific,60+,6
29,M,Pacific,60+,12
29,M,Pacific,0-14,6
29,F,Pacific,0-14,6
29,F,Pacific,15-29,999999
29,M,MaoriPacific,60+,999999
29,F,MaoriPacific,60+,999999
30,F,Other,30-59,11040
30,M,Other,30-59,10341
30,F,Other,60+,8442
30,F,Maori,30-59,3810
30,M,Other,60+,7362
30,M,Maori,30-59,3228
30,M,Other,0-14,4506
30,F,Other,0-14,4431
30,M,Other,15-29,4260
30,F,Other,15-29,3966
30,M,Maori,15-29,2400
30,F,Maori,60+,1203
30,F,Maori,0-14,3213
30,M,Maori,0-14,3234
30,M,Maori,60+,1020
30,F,Maori,15-29,2556
30,M,Pacific,0-14,717
30,M,Pacific,15-29,834
30,F,Pacific,30-59,690
30,M,Pacific,30-59,1107
30,F,Pacific,15-29,555
30,F,Pacific,0-14,675
30,M,MaoriPacific,30-59,126
30,F,MaoriPacific,30-59,138
30,F,MaoriPacific,0-14,429
30,M,MaoriPacific,15-29,198
30,M,MaoriPacific,0-14,495
30,F,Pacific,60+,168
30,M,MaoriPacific,60+,15
30,M,Pacific,60+,180
30,F,MaoriPacific,15-29,183
30,F,MaoriPacific,60+,18
31,F,Maori,0-14,2211
31,F,Maori,30-59,2295
31,M,Maori,0-14,2145
31,M,Maori,15-29,1524
31,M,Other,60+,6723
31,F,Other,60+,8037
31,F,Other,0-14,3558
31,M,Other,30-59,8487
31,F,Other,30-59,9522
31,F,Maori,15-29,1635
31,M,Maori,60+,585
31,M,Other,15-29,3546
31,M,Other,0-14,3606
31,M,Maori,30-59,2058
31,F,Maori,60+,723
31,F,Other,15-29,3450
31,F,Pacific,60+,81
31,F,Pacific,30-59,252
31,M,Pacific,60+,63
31,M,Pacific,0-14,243
31,F,Pacific,15-29,177
31,M,Pacific,30-59,258
31,M,Pacific,15-29,222
31,F,MaoriPacific,30-59,48
31,M,MaoriPacific,60+,9
31,F,MaoriPacific,0-14,174
31,M,MaoriPacific,0-14,171
31,F,Pacific,0-14,216
31,M,MaoriPacific,30-59,42
31,M,MaoriPacific,15-29,90
31,F,MaoriPacific,15-29,96
31,F,MaoriPacific,60+,999999
32,M,Other,60+,1728
32,F,Other,30-59,2103
32,M,Other,30-59,1998
32,F,Other,0-14,897
32,F,Other,60+,1740
32,F,Other,15-29,546
32,M,Other,15-29,636
32,F,Maori,15-29,366
32,M,Maori,0-14,498
32,F,Maori,30-59,570
32,M,Other,0-14,903
32,M,Maori,15-29,342
32,M,Maori,30-59,507
32,F,Maori,0-14,516
32,M,Maori,60+,183
32,F,MaoriPacific,0-14,42
32,M,MaoriPacific,0-14,42
32,M,MaoriPacific,15-29,18
32,F,Maori,60+,207
32,F,MaoriPacific,30-59,24
32,F,Pacific,30-59,36
32,M,Pacific,30-59,75
32,F,Pacific,15-29,24
32,M,Pacific,15-29,30
32,F,MaoriPacific,60+,6
32,F,MaoriPacific,15-29,15
32,M,Pacific,60+,9
32,M,MaoriPacific,30-59,21
32,F,Pacific,0-14,24
32,M,Pacific,0-14,24
32,F,Pacific,60+,18
32,M,MaoriPacific,60+,999999
33,F,Maori,30-59,2376
33,M,Other,60+,8400
33,M,Other,30-59,12474
33,M,Maori,30-59,2280
33,F,Other,0-14,5376
33,F,Other,30-59,13452
33,M,Other,0-14,5781
33,M,Pacific,30-59,204
33,M,Other,15-29,5151
33,F,Maori,0-14,2208
33,M,Maori,0-14,2355
33,M,Pacific,15-29,174
33,M,Maori,15-29,1653
33,F,Maori,15-29,1578
33,F,Other,60+,9708
33,F,Maori,60+,699
33,F,Other,15-29,4797
33,M,Maori,60+,606
33,F,Pacific,60+,45
33,M,Pacific,60+,54
33,M,Pacific,0-14,186
33,F,Pacific,30-59,201
33,F,Pacific,15-29,135
33,M,MaoriPacific,15-29,84
33,M,MaoriPacific,0-14,183
33,F,MaoriPacific,0-14,165
33,F,MaoriPacific,15-29,78
33,F,MaoriPacific,30-59,54
33,F,Pacific,0-14,174
33,M,MaoriPacific,30-59,39
33,F,MaoriPacific,60+,6
33,M,MaoriPacific,60+,6
34,M,Other,0-14,768
34,M,Other,30-59,1581
34,F,Other,30-59,1578
34,F,Other,60+,1104
34,M,Other,15-29,657
34,F,Maori,15-29,159
34,F,Other,0-14,738
34,F,Other,15-29,633
34,M,Other,60+,987
34,M,Maori,0-14,249
34,F,Maori,0-14,225
34,M,Maori,30-59,207
34,M,Maori,15-29,153
34,F,Maori,30-59,204
34,F,Pacific,15-29,12
34,M,Pacific,30-59,15
34,F,Maori,60+,51
34,M,Maori,60+,54
34,M,Pacific,15-29,9
34,M,MaoriPacific,0-14,15
34,F,MaoriPacific,15-29,6
34,F,MaoriPacific,0-14,15
34,F,Pacific,30-59,9
34,F,MaoriPacific,30-59,6
34,M,MaoriPacific,30-59,999999
34,M,Pacific,0-14,15
34,F,Pacific,0-14,12
34,M,Pacific,60+,999999
34,M,MaoriPacific,15-29,999999
34,M,MaoriPacific,60+,999999
35,F,Other,15-29,1377
35,M,Other,30-59,4026
35,M,Other,15-29,1617
35,F,Other,30-59,3945
35,F,Maori,60+,423
35,F,Maori,0-14,1149
35,M,Maori,0-14,1254
35,M,Maori,30-59,1173
35,F,Maori,30-59,1284
35,M,Maori,60+,384
35,M,Other,60+,2556
35,F,Maori,15-29,810
35,F,Other,60+,2610
35,F,Other,0-14,1683
35,M,Other,0-14,1866
35,M,Maori,15-29,777
35,M,Pacific,0-14,39
35,F,MaoriPacific,15-29,36
35,M,MaoriPacific,30-59,39
35,F,MaoriPacific,0-14,99
35,M,Pacific,30-59,51
35,F,Pacific,30-59,48
35,M,MaoriPacific,15-29,39
35,F,MaoriPacific,60+,999999
35,M,MaoriPacific,0-14,90
35,M,Pacific,15-29,36
35,F,Pacific,0-14,39
35,F,MaoriPacific,30-59,30
35,F,Pacific,15-29,21
35,M,Pacific,60+,18
35,F,Pacific,60+,6
35,M,MaoriPacific,60+,999999
36,M,Maori,30-59,843
36,M,Other,30-59,1389
36,F,Other,30-59,1332
36,M,Other,15-29,534
36,M,Other,60+,1113
36,F,Other,15-29,456
36,F,Other,60+,1002
36,F,Other,0-14,495
36,M,Other,0-14,495
36,M,Maori,0-14,837
36,M,Maori,15-29,570
36,F,Maori,30-59,903
36,M,Maori,60+,321
36,F,Maori,60+,378
36,F,Pacific,30-59,27
36,F,Maori,0-14,732
36,F,Maori,15-29,558
36,M,Pacific,15-29,27
36,M,MaoriPacific,0-14,60
36,F,MaoriPacific,0-14,60
36,F,MaoriPacific,15-29,24
36,M,Pacific,30-59,33
36,M,MaoriPacific,15-29,24
36,M,MaoriPacific,30-59,12
36,F,Pacific,60+,6
36,F,MaoriPacific,30-59,12
36,F,Pacific,15-29,12
36,F,MaoriPacific,60+,999999
36,M,Pacific,0-14,21
36,F,Pacific,0-14,21
36,M,Pacific,60+,9
36,M,MaoriPacific,60+,999999
37,M,Other,30-59,5742
37,F,Other,30-59,6252
37,F,Other,60+,5955
37,M,Other,60+,4953
37,M,Other,15-29,2397
37,M,Other,0-14,2409
37,F,Other,0-14,2403
37,F,Maori,0-14,1719
37,F,Other,15-29,2241
37,M,Maori,30-59,1833
37,F,Maori,30-59,2019
37,M,Maori,0-14,1776
37,F,Maori,15-29,1317
37,M,Maori,15-29,1335
37,M,Maori,60+,615
37,F,Pacific,60+,66
37,M,Pacific,15-29,138
37,F,Pacific,30-59,165
37,F,Maori,60+,732
37,F,MaoriPacific,0-14,150
37,F,MaoriPacific,15-29,87
37,M,MaoriPacific,0-14,180
37,F,Pacific,15-29,111
37,M,MaoriPacific,15-29,63
37,M,Pacific,30-59,213
37,M,MaoriPacific,30-59,36
37,M,Pacific,60+,57
37,F,Pacific,0-14,144
37,M,Pacific,0-14,156
37,F,MaoriPacific,30-59,39
37,M,MaoriPacific,60+,6
37,F,MaoriPacific,60+,999999
38,M,Other,15-29,807
38,F,Maori,15-29,429
38,F,Other,15-29,714
38,M,Maori,15-29,414
38,F,Other,30-59,2007
38,M,Maori,30-59,615
38,F,Maori,30-59,672
38,F,Other,60+,1584
38,F,Other,0-14,831
38,M,Other,0-14,858
38,M,Other,30-59,1968
38,M,Maori,0-14,558
38,F,Maori,0-14,519
38,F,Maori,60+,291
38,M,Maori,60+,240
38,M,Other,60+,1665
38,F,MaoriPacific,0-14,66
38,F,MaoriPacific,15-29,30
38,M,Pacific,30-59,111
38,M,MaoriPacific,15-29,9
38,M,Pacific,15-29,96
38,M,MaoriPacific,30-59,9
38,F,Pacific,15-29,78
38,F,Pacific,0-14,120
38,M,Pacific,0-14,129
38,F,Pacific,30-59,93
38,F,Pacific,60+,21
38,M,MaoriPacific,0-14,60
38,F,MaoriPacific,30-59,15
38,M,Pacific,60+,6
38,M,MaoriPacific,60+,999999
38,F,MaoriPacific,60+,999999
39,F,Maori,30-59,825
39,M,Other,60+,3237
39,F,Other,60+,3537
39,M,Other,0-14,2223
39,F,Other,15-29,1830
39,F,Other,30-59,5097
39,M,Other,30-59,4788
39,F,Other,0-14,2154
39,F,Maori,0-14,771
39,M,Other,15-29,1980
39,M,Maori,30-59,729
39,F,Maori,15-29,522
39,M,Pacific,0-14,78
39,F,Pacific,15-29,27
39,F,Pacific,30-59,42
39,M,Maori,60+,234
39,F,Maori,60+,231
39,M,Maori,0-14,852
39,M,Maori,15-29,540
39,F,MaoriPacific,0-14,75
39,M,MaoriPacific,15-29,30
39,M,MaoriPacific,0-14,90
39,F,MaoriPacific,15-29,36
39,M,Pacific,30-59,63
39,M,MaoriPacific,30-59,27
39,F,Pacific,0-14,45
39,M,Pacific,60+,24
39,F,MaoriPacific,30-59,21
39,M,Pacific,15-29,39
39,F,Pacific,60+,6
39,M,MaoriPacific,60+,999999
39,F,MaoriPacific,60+,999999
40,M,Other,60+,6678
40,F,Other,60+,8202
40,M,Other,0-14,5487
40,F,Other,0-14,5148
40,F,Other,30-59,12879
40,M,Other,15-29,7671
40,M,Other,30-59,11805
40,F,Maori,0-14,2145
40,M,Maori,30-59,2331
40,F,Other,15-29,7743
40,F,Maori,15-29,2130
40,F,Maori,30-59,2424
40,M,Pacific,30-59,543
40,F,Pacific,30-59,474
40,M,Maori,60+,510
40,M,Maori,0-14,2274
40,F,Maori,60+,579
40,M,Maori,15-29,2157
40,M,Pacific,15-29,513
40,F,Pacific,15-29,453
40,F,Pacific,0-14,462
40,M,Pacific,0-14,495
40,F,Pacific,60+,147
40,F,MaoriPacific,15-29,147
40,M,MaoriPacific,0-14,384
40,F,MaoriPacific,0-14,309
40,M,MaoriPacific,15-29,204
40,M,Pacific,60+,126
40,F,MaoriPacific,30-59,102
40,M,MaoriPacific,30-59,99
40,M,MaoriPacific,60+,9
40,F,MaoriPacific,60+,9
41,F,Other,60+,2025
41,M,Other,60+,2013
41,M,Other,0-14,1161
41,F,Other,0-14,1119
41,M,Other,15-29,951
41,M,Other,30-59,2559
41,F,Other,30-59,2619
41,M,Maori,0-14,729
41,F,Maori,30-59,777
41,F,Other,15-29,867
41,M,Maori,30-59,645
41,M,Maori,15-29,489
41,F,Pacific,60+,12
41,F,Maori,60+,228
41,F,Maori,0-14,729
41,M,MaoriPacific,60+,999999
41,M,Pacific,0-14,33
41,F,Pacific,0-14,36
41,M,Pacific,15-29,27
41,F,Pacific,15-29,24
41,F,Pacific,30-59,33
41,F,Maori,15-29,486
41,M,Maori,60+,204
41,F,MaoriPacific,30-59,12
41,M,Pacific,30-59,39
41,M,MaoriPacific,0-14,33
41,F,MaoriPacific,15-29,15
41,F,MaoriPacific,0-14,36
41,M,MaoriPacific,15-29,18
41,M,MaoriPacific,30-59,9
41,F,MaoriPacific,60+,999999
41,M,Pacific,60+,999999
42,F,Other,30-59,4395
42,M,Other,60+,4407
42,F,Maori,15-29,885
42,M,Other,30-59,3999
42,F,Maori,30-59,1338
42,F,Other,15-29,1464
42,F,Maori,60+,534
42,M,Maori,60+,444
42,F,Other,60+,4920
42,M,Other,15-29,1518
42,M,Maori,30-59,1197
42,F,MaoriPacific,0-14,138
42,M,Maori,0-14,1185
42,F,MaoriPacific,15-29,51
42,F,Other,0-14,1464
42,M,Other,0-14,1521
42,M,Maori,15-29,909
42,F,Maori,0-14,1176
42,M,Pacific,0-14,237
42,M,Pacific,30-59,243
42,F,Pacific,15-29,189
42,F,Pacific,30-59,231
42,M,MaoriPacific,0-14,153
42,M,Pacific,60+,63
42,F,MaoriPacific,30-59,36
42,M,Pacific,15-29,177
42,F,MaoriPacific,60+,9
42,M,MaoriPacific,15-29,54
42,F,Pacific,0-14,219
42,M,MaoriPacific,30-59,30
42,F,Pacific,60+,75
42,M,MaoriPacific,60+,999999
43,M,Pacific,0-14,153
43,F,Pacific,0-14,165
43,F,Pacific,30-59,186
43,F,Other,60+,9195
43,M,Other,60+,7266
43,M,Other,30-59,7644
43,F,Maori,30-59,1332
43,F,Maori,0-14,1122
43,M,Maori,15-29,837
43,F,Other,15-29,2601
43,M,Maori,0-14,1137
43,F,Maori,15-29,804
43,M,Maori,30-59,1248
43,F,Other,30-59,8778
43,M,Other,0-14,3207
43,F,Other,0-14,3219
43,M,MaoriPacific,0-14,147
43,F,MaoriPacific,15-29,63
43,F,Maori,60+,495
43,M,Maori,60+,423
43,M,Other,15-29,2784
43,F,MaoriPacific,0-14,138
43,M,MaoriPacific,30-59,39
43,M,Pacific,15-29,108
43,M,MaoriPacific,15-29,51
43,M,Pacific,30-59,216
43,F,MaoriPacific,30-59,42
43,F,Pacific,15-29,144
43,M,Pacific,60+,54
43,F,Pacific,60+,66
43,F,MaoriPacific,60+,6
43,M,MaoriPacific,60+,6
44,M,Other,60+,3336
44,F,Pacific,60+,753
44,F,MaoriPacific,15-29,402
44,M,MaoriPacific,15-29,405
44,F,Maori,30-59,2001
44,M,Other,15-29,2496
44,F,Other,30-59,7419
44,F,Other,60+,3621
44,F,Maori,60+,567
44,F,Maori,0-14,1281
44,M,Other,30-59,6798
44,F,Other,0-14,2916
44,F,Other,15-29,2373
44,M,Other,0-14,3033
44,M,Maori,30-59,1671
44,M,Maori,0-14,1335
44,F,Maori,15-29,1245
44,M,Maori,15-29,1149
44,M,Pacific,0-14,1629
44,M,Pacific,15-29,1506
44,F,Pacific,30-59,2223
44,F,MaoriPacific,0-14,807
44,F,Pacific,15-29,1545
44,M,Pacific,30-59,2037
44,M,Pacific,60+,687
44,M,Maori,60+,453
44,M,MaoriPacific,30-59,180
44,F,MaoriPacific,30-59,213
44,F,Pacific,0-14,1584
44,M,MaoriPacific,0-14,864
44,F,MaoriPacific,60+,21
44,M,MaoriPacific,60+,6
45,F,Other,30-59,7626
45,M,Other,60+,3732
45,M,Other,0-14,3084
45,F,Other,60+,4449
45,M,Other,30-59,7470
45,F,Other,0-14,2880
45,F,Other,15-29,2805
45,M,Other,15-29,3144
45,F,Maori,15-29,690
45,F,Pacific,15-29,204
45,M,Maori,15-29,891
45,F,Pacific,30-59,324
45,M,Maori,30-59,1272
45,F,Maori,0-14,858
45,M,Maori,0-14,882
45,F,Maori,30-59,1089
45,M,Maori,60+,309
45,F,Maori,60+,279
45,M,MaoriPacific,30-59,66
45,M,MaoriPacific,15-29,102
45,M,Pacific,30-59,381
45,M,Pacific,15-29,249
45,F,MaoriPacific,0-14,165
45,F,MaoriPacific,15-29,72
45,M,Pacific,60+,93
45,F,Pacific,0-14,231
45,F,Pacific,60+,108
45,M,Pacific,0-14,273
45,F,MaoriPacific,30-59,45
45,M,MaoriPacific,0-14,186
45,M,MaoriPacific,60+,999999
45,F,MaoriPacific,60+,6
46,F,Other,15-29,6564
46,F,Other,30-59,16698
46,M,Other,30-59,15876
46,M,Other,60+,8061
46,F,Other,0-14,6228
46,M,Other,0-14,6432
46,M,Maori,0-14,2379
46,M,Other,15-29,6795
46,F,Other,60+,9108
46,F,Maori,0-14,2208
46,F,Maori,30-59,3351
46,M,Maori,15-29,2085
46,F,Maori,15-29,2115
46,M,Maori,30-59,2997
46,M,Maori,60+,780
46,M,Pacific,30-59,1734
46,M,Pacific,60+,537
46,F,Pacific,30-59,1767
46,F,Maori,60+,855
46,F,MaoriPacific,0-14,675
46,F,Pacific,0-14,1218
46,M,Pacific,15-29,1191
46,M,Pacific,0-14,1281
46,F,Pacific,60+,573
46,F,Pacific,15-29,1212
46,M,MaoriPacific,60+,12
46,F,MaoriPacific,15-29,384
46,M,MaoriPacific,0-14,717
46,M,MaoriPacific,30-59,162
46,M,MaoriPacific,15-29,339
46,F,MaoriPacific,30-59,186
46,F,MaoriPacific,60+,21
47,F,Other,30-59,38433
47,M,Other,30-59,36843
47,F,Other,0-14,13104
47,M,Other,0-14,13617
47,F,Other,15-29,24126
47,M,Other,15-29,22581
47,M,Maori,30-59,2775
47,F,Maori,30-59,3072
47,F,Maori,60+,660
47,M,Other,60+,13035
47,F,Other,60+,14841
47,F,Maori,15-29,2769
47,F,Pacific,15-29,1203
47,M,Pacific,15-29,1224
47,M,Pacific,60+,426
47,M,Maori,0-14,1779
47,F,Maori,0-14,1656
47,M,Maori,15-29,2475
47,M,MaoriPacific,15-29,315
47,F,MaoriPacific,15-29,306
47,M,Maori,60+,579
47,F,Pacific,30-59,1686
47,F,MaoriPacific,0-14,345
47,M,Pacific,30-59,1638
47,F,Pacific,60+,591
47,F,Pacific,0-14,978
47,M,Pacific,0-14,996
47,F,MaoriPacific,30-59,132
47,M,MaoriPacific,0-14,375
47,M,MaoriPacific,30-59,153
47,F,MaoriPacific,60+,12
47,M,MaoriPacific,60+,9
48,F,Other,30-59,3738
48,F,Other,60+,3513
48,M,Other,60+,3021
48,F,Other,0-14,1440
48,M,Other,0-14,1485
48,M,Other,30-59,3384
48,M,Other,15-29,1434
48,F,Other,15-29,1395
48,F,Pacific,30-59,114
48,F,Maori,15-29,645
48,F,Maori,60+,273
48,F,Maori,0-14,801
48,M,Maori,30-59,801
48,F,Maori,30-59,897
48,M,Maori,0-14,861
48,M,Maori,60+,243
48,F,Pacific,0-14,108
48,M,Pacific,15-29,114
48,M,Maori,15-29,618
48,M,Pacific,0-14,105
48,M,Pacific,60+,33
48,M,MaoriPacific,30-59,18
48,F,MaoriPacific,0-14,90
48,M,Pacific,30-59,132
48,M,MaoriPacific,0-14,81
48,F,Pacific,15-29,78
48,F,Pacific,60+,36
48,F,MaoriPacific,30-59,18
48,F,MaoriPacific,15-29,42
48,M,MaoriPacific,15-29,42
48,F,MaoriPacific,60+,999999
49,F,Other,60+,1341
49,M,Other,60+,1260
49,M,Maori,0-14,186
49,F,Maori,0-14,198
49,F,Maori,30-59,192
49,F,Other,0-14,633
49,M,Other,0-14,651
49,F,Other,15-29,447
49,M,Other,30-59,1440
49,F,Other,30-59,1569
49,M,Other,15-29,507
49,M,Maori,30-59,180
49,F,Maori,15-29,141
49,M,Maori,15-29,147
49,F,Maori,60+,66
49,F,Pacific,15-29,9
49,M,Pacific,15-29,15
49,M,Pacific,60+,9
49,F,Pacific,60+,999999
49,M,MaoriPacific,30-59,6
49,M,Pacific,0-14,18
49,F,Pacific,30-59,15
49,M,MaoriPacific,0-14,12
49,F,MaoriPacific,30-59,6
49,M,Pacific,30-59,15
49,F,MaoriPacific,0-14,15
49,M,Maori,60+,66
49,M,MaoriPacific,15-29,9
49,F,Pacific,0-14,27
49,F,MaoriPacific,60+,999999
49,F,MaoriPacific,15-29,9
50,M,Maori,15-29,141
50,F,Maori,15-29,150
50,M,Maori,30-59,237
50,F,Other,30-59,1881
50,M,Other,0-14,741
50,M,Other,30-59,1773
50,F,Other,0-14,654
50,M,Other,60+,1473
50,F,Other,60+,1440
50,F,Maori,60+,99
50,F,Other,15-29,489
50,M,Other,15-29,483
50,F,Maori,0-14,207
50,M,Pacific,30-59,27
50,M,Maori,0-14,222
50,F,Maori,30-59,273
50,M,Pacific,15-29,15
50,M,Maori,60+,81
50,M,MaoriPacific,0-14,33
50,F,MaoriPacific,15-29,6
50,F,Pacific,30-59,30
50,M,Pacific,0-14,18
50,M,Pacific,60+,999999
50,M,MaoriPacific,15-29,12
50,F,Pacific,60+,12
50,F,MaoriPacific,0-14,18
50,F,Pacific,0-14,18
50,M,MaoriPacific,30-59,9
50,F,MaoriPacific,30-59,9
50,F,Pacific,15-29,15
50,M,MaoriPacific,60+,999999
50,F,MaoriPacific,60+,999999
51,M,Other,60+,7113
51,F,Other,60+,7161
51,F,Other,0-14,3846
51,M,Other,0-14,3981
51,F,Other,15-29,3042
51,F,Other,30-59,9786
51,M,Maori,0-14,726
51,M,Other,30-59,8799
51,M,Other,15-29,3408
51,M,Maori,15-29,513
51,F,Maori,15-29,453
51,M,Maori,30-59,729
51,F,Maori,30-59,777
51,F,Maori,0-14,696
51,M,Maori,60+,225
51,M,Pacific,60+,27
51,F,Maori,60+,273
51,F,Pacific,60+,27
51,F,Pacific,0-14,72
51,M,Pacific,0-14,102
51,F,Pacific,30-59,87
51,M,Pacific,30-59,192
51,M,Pacific,15-29,120
51,F,Pacific,15-29,51
51,F,MaoriPacific,15-29,27
51,M,MaoriPacific,60+,999999
51,M,MaoriPacific,30-59,15
51,M,MaoriPacific,15-29,15
51,M,MaoriPacific,0-14,60
51,F,MaoriPacific,0-14,45
51,F,MaoriPacific,30-59,15
52,F,Other,0-14,3432
52,F,Other,30-59,9402
52,M,Maori,30-59,897
52,M,Other,15-29,3510
52,F,Other,15-29,3372
52,M,Other,30-59,8625
52,M,Maori,60+,198
52,F,Other,60+,6774
52,M,Other,60+,5868
52,F,Maori,15-29,621
52,M,Other,0-14,3546
52,M,Maori,0-14,843
52,F,Maori,0-14,771
52,M,Maori,15-29,663
52,F,Maori,60+,240
52,F,MaoriPacific,0-14,60
52,F,Pacific,0-14,150
52,F,Maori,30-59,918
52,F,MaoriPacific,30-59,15
52,F,Pacific,30-59,156
52,M,Pacific,60+,45
52,M,Pacific,0-14,147
52,M,Pacific,30-59,183
52,M,MaoriPacific,0-14,75
52,F,MaoriPacific,15-29,42
52,M,Pacific,15-29,132
52,M,MaoriPacific,30-59,24
52,M,MaoriPacific,15-29,39
52,F,Pacific,15-29,90
52,F,Pacific,60+,27
52,F,MaoriPacific,60+,999999
52,M,MaoriPacific,60+,999999
53,M,Maori,30-59,1038
53,F,Other,15-29,2568
53,M,Other,15-29,2895
53,F,Other,30-59,7944
53,M,Other,30-59,7479
53,M,Pacific,15-29,183
53,M,Pacific,30-59,282
53,F,Other,0-14,2874
53,M,Other,0-14,2985
53,M,Maori,0-14,957
53,F,Maori,15-29,639
53,M,Other,60+,6372
53,M,Maori,15-29,663
53,F,Other,60+,6729
53,F,MaoriPacific,0-14,81
53,M,MaoriPacific,0-14,87
53,F,Maori,30-59,1092
53,M,Maori,60+,381
53,F,Pacific,15-29,132
53,M,Pacific,0-14,201
53,F,Pacific,0-14,153
53,F,Pacific,30-59,165
53,F,Maori,0-14,918
53,F,Maori,60+,348
53,M,Pacific,60+,27
53,M,MaoriPacific,30-59,18
53,F,Pacific,60+,33
53,F,MaoriPacific,15-29,36
53,M,MaoriPacific,15-29,36
53,M,MaoriPacific,60+,999999
53,F,MaoriPacific,30-59,18
53,F,MaoriPacific,60+,999999
54,F,Other,30-59,609
54,F,Other,60+,531
54,M,Other,60+,561
54,F,Other,15-29,204
54,M,Other,15-29,243
54,M,Other,30-59,621
54,M,Maori,0-14,129
54,F,Maori,0-14,99
54,F,Maori,15-29,75
54,M,Maori,15-29,69
54,F,Maori,30-59,138
54,M,Maori,60+,48
54,F,Maori,60+,39
54,M,Other,0-14,195
54,F,Other,0-14,204
54,M,Maori,30-59,123
54,F,Pacific,15-29,999999
54,M,Pacific,15-29,6
54,F,Pacific,30-59,6
54,M,Pacific,0-14,999999
54,F,MaoriPacific,30-59,999999
54,M,MaoriPacific,0-14,999999
54,F,Pacific,60+,999999
54,M,Pacific,30-59,6
54,F,Pacific,0-14,999999
54,M,MaoriPacific,15-29,999999
54,F,MaoriPacific,0-14,999999
54,M,MaoriPacific,30-59,999999
55,F,Maori,30-59,189
55,M,Other,60+,1536
55,F,Other,60+,1377
55,M,Other,0-14,627
55,F,Other,30-59,1635
55,M,Other,30-59,1662
55,F,Other,15-29,504
55,M,Maori,0-14,177
55,M,Maori,15-29,93
55,F,Maori,15-29,105
55,F,Other,0-14,576
55,M,Maori,60+,75
55,M,Other,15-29,510
55,M,Maori,30-59,180
55,F,Maori,0-14,153
55,F,Maori,60+,60
55,F,Pacific,30-59,21
55,M,Pacific,30-59,21
55,F,MaoriPacific,0-14,12
55,M,MaoriPacific,0-14,12
55,M,MaoriPacific,15-29,999999
55,F,MaoriPacific,15-29,999999
55,M,MaoriPacific,30-59,999999
55,F,Pacific,15-29,9
55,F,Pacific,0-14,15
55,M,Pacific,0-14,12
55,M,Pacific,60+,999999
55,F,MaoriPacific,30-59,999999
55,F,MaoriPacific,60+,999999
55,M,Pacific,15-29,999999
55,F,Pacific,60+,999999
55,M,MaoriPacific,60+,999999
56,F,Other,0-14,972
56,M,Other,0-14,1119
56,F,Other,30-59,2283
56,F,Other,60+,1605
56,M,Other,60+,1647
56,M,Other,30-59,2319
56,M,Maori,15-29,156
56,M,Maori,30-59,225
56,M,Maori,0-14,210
56,F,Maori,30-59,270
56,F,Other,15-29,954
56,F,Maori,15-29,147
56,F,MaoriPacific,0-14,15
56,F,MaoriPacific,15-29,999999
56,M,Other,15-29,954
56,F,Maori,60+,66
56,F,Maori,0-14,195
56,M,Pacific,0-14,21
56,M,Maori,60+,57
56,F,Pacific,30-59,27
56,F,Pacific,0-14,21
56,F,Pacific,15-29,15
56,M,MaoriPacific,60+,999999
56,M,Pacific,30-59,27
56,M,Pacific,15-29,15
56,F,MaoriPacific,30-59,999999
56,M,MaoriPacific,0-14,12
56,M,MaoriPacific,30-59,999999
56,M,Pacific,60+,999999
56,F,Pacific,60+,999999
57,M,Other,0-14,513
57,F,Other,60+,957
57,M,Other,60+,1050
57,M,Other,30-59,1515
57,F,Other,30-59,1569
57,F,Other,15-29,546
57,F,Maori,30-59,234
57,F,Maori,0-14,159
57,M,Maori,30-59,198
57,F,Other,0-14,537
57,M,Other,15-29,573
57,M,Maori,60+,69
57,M,Maori,15-29,135
57,F,Pacific,15-29,24
57,M,Pacific,15-29,24
57,M,Pacific,30-59,24
57,F,Pacific,30-59,18
57,M,Maori,0-14,198
57,F,Maori,15-29,126
57,F,Maori,60+,87
57,M,MaoriPacific,30-59,6
57,M,Pacific,0-14,18
57,M,Pacific,60+,9
57,F,Pacific,0-14,12
57,M,MaoriPacific,15-29,9
57,F,MaoriPacific,30-59,999999
57,F,MaoriPacific,60+,999999
57,F,Pacific,60+,999999
57,F,MaoriPacific,15-29,6
57,M,MaoriPacific,0-14,9
57,F,MaoriPacific,0-14,999999
58,M,Other,30-59,2271
58,F,Other,60+,1599
58,M,Other,60+,1671
58,M,Other,15-29,825
58,F,Other,15-29,759
58,M,Maori,60+,54
58,M,Maori,0-14,198
58,F,Maori,15-29,90
58,F,Other,0-14,966
58,F,Other,30-59,2271
58,M,Other,0-14,1017
58,F,Maori,30-59,186
58,F,Maori,60+,45
58,M,Maori,15-29,108
58,M,Maori,30-59,156
58,M,Pacific,30-59,21
58,F,Maori,0-14,198
58,M,MaoriPacific,0-14,15
58,F,MaoriPacific,30-59,999999
58,F,Pacific,0-14,18
58,F,Pacific,15-29,12
58,M,Pacific,0-14,9
58,F,Pacific,30-59,21
58,F,MaoriPacific,15-29,999999
58,M,Pacific,15-29,12
58,M,Pacific,60+,999999
58,M,MaoriPacific,15-29,9
58,F,Pacific,60+,9
58,F,MaoriPacific,0-14,6
58,M,MaoriPacific,30-59,999999
58,M,MaoriPacific,60+,999999
58,F,MaoriPacific,60+,999999
59,M,Maori,15-29,657
59,M,Other,30-59,10368
59,F,Maori,30-59,846
59,F,Other,30-59,11157
59,M,Other,60+,6906
59,F,Other,60+,7554
59,F,Other,15-29,3990
59,M,Other,0-14,4743
59,F,Other,0-14,4746
59,M,Other,15-29,4254
59,F,Pacific,30-59,102
59,M,Maori,30-59,816
59,F,MaoriPacific,30-59,9
59,F,Pacific,0-14,123
59,M,Pacific,30-59,114
59,F,Maori,0-14,765
59,M,Maori,0-14,831
59,F,Maori,15-29,573
59,M,Pacific,0-14,129
59,F,Maori,60+,231
59,F,Pacific,15-29,69
59,M,Pacific,15-29,96
59,M,MaoriPacific,0-14,33
59,F,MaoriPacific,0-14,42
59,M,Maori,60+,246
59,F,MaoriPacific,15-29,21
59,M,MaoriPacific,15-29,12
59,F,Pacific,60+,24
59,F,MaoriPacific,60+,999999
59,M,Pacific,60+,27
59,M,MaoriPacific,60+,999999
59,M,MaoriPacific,30-59,12
60,M,Other,60+,32274
60,F,Other,60+,39153
60,M,Other,30-59,65235
60,F,Other,0-14,23844
60,F,Other,30-59,65664
60,M,Other,0-14,25011
60,M,Other,15-29,36690
60,F,Maori,0-14,4956
60,F,Maori,30-59,5733
60,F,Other,15-29,32784
60,M,Maori,30-59,5973
60,M,Maori,15-29,4881
60,M,Maori,0-14,5082
60,F,Maori,15-29,4686
60,M,MaoriPacific,0-14,747
60,F,MaoriPacific,0-14,666
60,F,Pacific,60+,447
60,F,Pacific,15-29,1566
60,M,Pacific,15-29,1686
60,M,MaoriPacific,15-29,348
60,M,Pacific,30-59,2121
60,M,MaoriPacific,30-59,165
60,M,Maori,60+,1470
60,M,Pacific,60+,489
60,F,Pacific,0-14,1614
60,M,Pacific,0-14,1779
60,F,Pacific,30-59,2004
60,F,MaoriPacific,15-29,336
60,F,Maori,60+,1395
60,F,MaoriPacific,30-59,171
60,M,MaoriPacific,60+,24
60,F,MaoriPacific,60+,15
62,F,Other,30-59,12279
62,M,Other,60+,5112
62,M,Other,30-59,11811
62,M,Maori,60+,135
62,M,Other,0-14,5820
62,F,Other,0-14,5649
62,F,Other,60+,4896
62,F,Other,15-29,4575
62,M,Maori,30-59,810
62,M,Other,15-29,4869
62,M,Maori,0-14,855
62,F,Maori,0-14,738
62,F,Maori,30-59,777
62,M,Maori,15-29,600
62,F,Maori,15-29,507
62,F,Pacific,15-29,90
62,F,MaoriPacific,0-14,66
62,M,Pacific,15-29,129
62,F,Maori,60+,114
62,M,MaoriPacific,15-29,36
62,F,Pacific,30-59,102
62,M,Pacific,30-59,153
62,M,Pacific,0-14,138
62,F,Pacific,0-14,114
62,M,MaoriPacific,60+,6
62,F,Pacific,60+,21
62,M,MaoriPacific,0-14,75
62,M,MaoriPacific,30-59,21
62,F,MaoriPacific,30-59,15
62,M,Pacific,60+,18
62,F,MaoriPacific,15-29,27
62,F,MaoriPacific,60+,999999
63,F,Other,15-29,2244
63,M,Other,15-29,2610
63,M,Other,0-14,2709
63,F,Other,0-14,2514
63,F,Other,30-59,5682
63,M,Other,30-59,5742
63,F,Other,60+,3993
63,M,Other,60+,3675
63,M,Maori,15-29,333
63,F,Maori,15-29,312
63,F,Maori,30-59,405
63,M,Maori,0-14,462
63,F,Maori,60+,87
63,M,Maori,30-59,390
63,F,Maori,0-14,438
63,F,Pacific,15-29,156
63,F,Pacific,60+,15
63,M,Pacific,60+,21
63,M,Pacific,0-14,300
63,F,Pacific,0-14,258
63,M,Pacific,30-59,309
63,F,Pacific,30-59,216
63,M,Maori,60+,114
63,M,MaoriPacific,0-14,63
63,F,MaoriPacific,30-59,12
63,F,MaoriPacific,0-14,66
63,M,Pacific,15-29,252
63,M,MaoriPacific,15-29,15
63,M,MaoriPacific,30-59,12
63,F,MaoriPacific,15-29,12
63,F,MaoriPacific,60+,999999
63,M,MaoriPacific,60+,999999
64,F,Other,60+,6789
64,M,Other,60+,5982
64,M,Other,30-59,7602
64,F,Other,30-59,8061
64,M,Other,15-29,3318
64,M,Other,0-14,3435
64,F,Other,15-29,3081
64,F,Other,0-14,3117
64,M,Maori,30-59,609
64,F,Maori,30-59,675
64,M,Maori,0-14,699
64,F,Maori,0-14,696
64,M,Maori,60+,174
64,F,Maori,15-29,474
64,M,Pacific,15-29,105
64,F,Pacific,0-14,114
64,M,Maori,15-29,501
64,F,Maori,60+,201
64,M,Pacific,0-14,126
64,F,Pacific,30-59,105
64,M,Pacific,30-59,141
64,F,Pacific,60+,21
64,F,MaoriPacific,15-29,24
64,M,MaoriPacific,0-14,60
64,F,Pacific,15-29,69
64,M,MaoriPacific,30-59,12
64,M,MaoriPacific,15-29,24
64,F,MaoriPacific,0-14,39
64,M,Pacific,60+,21
64,M,MaoriPacific,60+,6
64,F,MaoriPacific,30-59,15
64,F,MaoriPacific,60+,999999
65,F,Other,15-29,435
65,M,Other,30-59,909
65,M,Other,15-29,447
65,F,Other,30-59,903
65,M,Other,0-14,378
65,F,Maori,0-14,54
65,M,Maori,15-29,51
65,M,Maori,30-59,57
65,M,Other,60+,582
65,F,Other,60+,522
65,F,Other,0-14,303
65,M,Pacific,0-14,9
65,M,Pacific,30-59,9
65,F,Pacific,30-59,12
65,M,Maori,0-14,48
65,F,Maori,15-29,30
65,F,Maori,30-59,48
65,F,Pacific,0-14,6
65,F,MaoriPacific,0-14,999999
65,M,MaoriPacific,15-29,999999
65,F,Maori,60+,18
65,M,MaoriPacific,60+,999999
65,F,Pacific,15-29,9
65,M,Pacific,15-29,999999
65,M,Maori,60+,15
65,F,MaoriPacific,30-59,999999
65,F,MaoriPacific,15-29,999999
65,F,Pacific,60+,999999
66,F,Other,60+,1128
66,M,Other,60+,1128
66,M,Other,0-14,543
66,M,Other,30-59,1410
66,F,Other,30-59,1359
66,M,Maori,0-14,93
66,F,Maori,15-29,60
66,F,Maori,30-59,96
66,M,Other,15-29,576
66,F,Other,0-14,594
66,F,Other,15-29,441
66,F,Pacific,30-59,12
66,M,Maori,15-29,54
66,F,Pacific,0-14,9
66,F,Pacific,15-29,999999
66,M,Pacific,15-29,12
66,M,Maori,30-59,87
66,F,Maori,60+,36
66,F,Maori,0-14,99
66,M,Pacific,0-14,9
66,M,Maori,60+,27
66,M,Pacific,30-59,12
66,M,Pacific,60+,999999
66,M,MaoriPacific,30-59,999999
66,M,MaoriPacific,15-29,999999
66,M,MaoriPacific,60+,999999
66,F,MaoriPacific,0-14,999999
66,F,MaoriPacific,30-59,999999
66,F,MaoriPacific,15-29,999999
66,F,Pacific,60+,999999
67,M,Other,15-29,24
67,M,Maori,15-29,51
67,F,Maori,15-29,36
67,F,Maori,30-59,84
67,M,Maori,30-59,93
67,M,Other,30-59,51
67,F,Other,30-59,57
67,F,Other,60+,27
67,M,Maori,60+,36
67,F,Maori,60+,36
67,M,Other,60+,33
67,M,Maori,0-14,48
67,F,Maori,0-14,42
67,F,Other,0-14,9
67,F,Other,15-29,9
67,M,Pacific,15-29,999999
67,M,Other,0-14,15
67,F,Pacific,30-59,999999
67,F,MaoriPacific,15-29,999999
67,M,MaoriPacific,0-14,999999
67,F,MaoriPacific,30-59,999999
67,M,MaoriPacific,15-29,999999
67,F,MaoriPacific,0-14,999999
67,F,MaoriPacific,60+,999999
68,F,Other,60+,3360
68,M,Other,60+,3054
68,M,Other,0-14,1548
68,M,Other,30-59,3606
68,F,Other,30-59,3807
68,F,Other,15-29,1296
68,M,Other,15-29,1437
68,M,Pacific,0-14,183
68,F,Pacific,30-59,114
68,F,Other,0-14,1578
68,F,Maori,15-29,201
68,F,Maori,30-59,300
68,F,Maori,0-14,288
68,M,Maori,30-59,258
68,F,Maori,60+,99
68,M,Maori,15-29,219
68,M,Maori,60+,108
68,M,MaoriPacific,0-14,18
68,F,MaoriPacific,0-14,15
68,M,Maori,0-14,291
68,M,Pacific,15-29,87
68,M,MaoriPacific,60+,999999
68,M,MaoriPacific,15-29,9
68,M,Pacific,30-59,135
68,F,Pacific,0-14,150
68,F,Pacific,15-29,90
68,F,Pacific,60+,21
68,M,Pacific,60+,18
68,F,MaoriPacific,30-59,999999
68,F,MaoriPacific,15-29,9
68,M,MaoriPacific,30-59,999999
68,F,MaoriPacific,60+,999999
69,F,Other,30-59,3828
69,M,Other,30-59,3669
69,M,Other,15-29,1365
69,M,Other,0-14,1521
69,F,Other,0-14,1359
69,F,Other,60+,3225
69,M,Maori,0-14,318
69,M,Maori,30-59,279
69,F,MaoriPacific,30-59,999999
69,F,Maori,0-14,327
69,F,Maori,30-59,312
69,M,Other,60+,3192
69,F,Other,15-29,1143
69,M,Maori,60+,87
69,M,Pacific,15-29,102
69,F,Maori,15-29,165
69,M,Pacific,0-14,39
69,F,Pacific,0-14,54
69,F,Pacific,30-59,42
69,F,Pacific,15-29,15
69,M,Maori,15-29,195
69,F,MaoriPacific,15-29,6
69,F,Maori,60+,84
69,M,Pacific,60+,12
69,M,Pacific,30-59,177
69,F,Pacific,60+,6
69,F,MaoriPacific,0-14,18
69,M,MaoriPacific,15-29,999999
69,M,MaoriPacific,0-14,18
69,M,MaoriPacific,30-59,999999
70,M,Other,60+,2946
70,F,Other,60+,2838
70,F,Other,30-59,8205
70,M,Other,30-59,8364
70,F,Other,0-14,2832
70,F,Maori,15-29,231
70,M,Maori,0-14,297
70,F,Maori,0-14,279
70,F,Maori,30-59,387
70,M,Other,0-14,2973
70,M,Other,15-29,4434
70,F,Other,15-29,4167
70,M,Maori,30-59,420
70,M,Maori,60+,54
70,M,Maori,15-29,261
70,F,Maori,60+,63
70,F,Pacific,30-59,48
70,F,Pacific,15-29,36
70,M,Pacific,15-29,51
70,F,Pacific,60+,9
70,M,Pacific,0-14,39
70,F,MaoriPacific,0-14,21
70,M,MaoriPacific,0-14,33
70,M,MaoriPacific,15-29,12
70,M,Pacific,60+,12
70,F,Pacific,0-14,48
70,F,MaoriPacific,15-29,9
70,M,Pacific,30-59,63
70,F,MaoriPacific,30-59,12
70,M,MaoriPacific,30-59,12
70,F,MaoriPacific,60+,999999
71,M,Other,60+,12078
71,F,Other,60+,14307
71,M,Other,15-29,13479
71,F,Other,0-14,7494
71,M,Other,0-14,8034
71,F,Other,30-59,21243
71,M,Pacific,30-59,513
71,M,Other,30-59,19671
71,F,Maori,0-14,1518
71,M,Maori,0-14,1662
71,F,Maori,30-59,1707
71,M,Maori,15-29,1776
71,F,Maori,60+,393
71,F,Other,15-29,14844
71,F,Maori,15-29,1962
71,M,Maori,60+,438
71,M,Maori,30-59,1620
71,F,Pacific,15-29,660
71,F,Pacific,0-14,432
71,M,Pacific,0-14,450
71,F,Pacific,30-59,477
71,M,Pacific,60+,138
71,M,MaoriPacific,30-59,36
71,F,MaoriPacific,30-59,42
71,M,MaoriPacific,15-29,108
71,M,MaoriPacific,60+,6
71,F,Pacific,60+,120
71,F,MaoriPacific,0-14,156
71,M,MaoriPacific,0-14,165
71,F,MaoriPacific,15-29,132
71,M,Pacific,15-29,582
71,F,MaoriPacific,60+,999999
72,F,Other,60+,2025
72,M,Other,0-14,1371
72,F,Other,30-59,3033
72,M,Other,15-29,1254
72,F,Other,0-14,1242
72,M,Other,30-59,3144
72,F,Other,15-29,1074
72,M,Other,60+,2064
72,M,Maori,30-59,411
72,M,Maori,0-14,375
72,F,Maori,0-14,327
72,F,Maori,30-59,354
72,M,Maori,15-29,276
72,F,Maori,15-29,204
72,F,Maori,60+,90
72,M,Maori,60+,105
72,M,Pacific,30-59,72
72,F,Pacific,30-59,36
72,M,MaoriPacific,30-59,999999
72,F,MaoriPacific,60+,999999
72,M,MaoriPacific,0-14,12
72,F,MaoriPacific,0-14,9
72,M,Pacific,0-14,36
72,F,Pacific,0-14,39
72,M,Pacific,60+,12
72,F,Pacific,15-29,18
72,M,MaoriPacific,15-29,15
72,F,MaoriPacific,15-29,999999
72,M,Pacific,15-29,51
72,F,MaoriPacific,30-59,999999
72,F,Pacific,60+,999999
72,M,MaoriPacific,60+,999999
73,F,Other,15-29,2073
73,F,Other,30-59,5445
73,M,Other,30-59,5808
73,M,Maori,60+,189
73,F,Maori,15-29,360
73,M,Other,15-29,2334
73,F,Other,60+,2955
73,M,Maori,30-59,471
73,F,Other,0-14,2550
73,M,Other,0-14,2700
73,M,Maori,15-29,414
73,F,Pacific,30-59,57
73,M,Other,60+,3318
73,F,Maori,0-14,552
73,F,Maori,60+,156
73,F,Maori,30-59,582
73,M,Maori,0-14,615
73,M,Pacific,15-29,27
73,F,Pacific,0-14,33
73,M,Pacific,30-59,54
73,M,MaoriPacific,15-29,18
73,M,Pacific,0-14,33
73,F,Pacific,15-29,24
73,F,Pacific,60+,9
73,F,MaoriPacific,0-14,21
73,M,MaoriPacific,0-14,30
73,F,MaoriPacific,30-59,9
73,F,MaoriPacific,15-29,9
73,M,MaoriPacific,60+,999999
73,M,MaoriPacific,30-59,6
73,M,Pacific,60+,9
73,F,MaoriPacific,60+,999999
74,M,Other,0-14,957
74,F,Other,0-14,843
74,F,Other,30-59,2067
74,M,Other,30-59,2028
74,M,Other,60+,1428
74,F,Other,15-29,810
74,F,Other,60+,1722
74,M,Other,15-29,855
74,F,Maori,30-59,258
74,M,Maori,15-29,213
74,M,Maori,0-14,279
74,F,Maori,15-29,168
74,M,Maori,30-59,237
74,F,Maori,0-14,249
74,M,Maori,60+,78
74,F,Maori,60+,75
74,M,Pacific,15-29,12
74,M,MaoriPacific,60+,999999
74,M,Pacific,0-14,15
74,F,Pacific,30-59,12
74,M,MaoriPacific,0-14,18
74,M,Pacific,30-59,24
74,F,Pacific,60+,6
74,F,MaoriPacific,0-14,9
74,F,MaoriPacific,15-29,9
74,F,Pacific,15-29,9
74,F,Pacific,0-14,9
74,F,MaoriPacific,30-59,999999
74,M,MaoriPacific,30-59,999999
74,M,Pacific,60+,999999
74,M,MaoriPacific,15-29,6
74,F,MaoriPacific,60+,999999
75,M,Other,15-29,3795
75,M,Other,30-59,8412
75,F,Other,30-59,8913
75,M,Other,60+,5178
75,M,Other,0-14,3570
75,F,Other,0-14,3429
75,F,Other,60+,6258
75,F,Other,15-29,3660
75,F,Maori,15-29,990
75,M,Maori,30-59,1497
75,F,Maori,60+,474
75,M,Maori,0-14,1425
75,M,MaoriPacific,15-29,54
75,F,Pacific,30-59,261
75,F,Maori,30-59,1617
75,M,Maori,60+,492
75,M,Maori,15-29,1083
75,F,Pacific,0-14,228
75,M,Pacific,0-14,246
75,F,MaoriPacific,15-29,75
75,M,Pacific,15-29,180
75,F,Maori,0-14,1359
75,F,MaoriPacific,0-14,144
75,F,Pacific,15-29,213
75,M,Pacific,30-59,276
75,M,Pacific,60+,108
75,M,MaoriPacific,30-59,45
75,M,MaoriPacific,0-14,156
75,F,Pacific,60+,33
75,F,MaoriPacific,30-59,30
75,M,MaoriPacific,60+,999999
75,F,MaoriPacific,60+,999999
76,F,Other,0-14,95316
76,M,Other,0-14,100770
76,F,Other,30-59,257031
76,M,Other,30-59,245730
76,M,Other,15-29,129927
76,F,Other,15-29,122010
76,F,Maori,0-14,18837
76,M,Maori,0-14,20031
76,F,Maori,30-59,28797
76,F,Other,60+,121902
76,M,Other,60+,108006
76,M,Pacific,30-59,34962
76,M,Maori,15-29,19041
76,F,Maori,15-29,19317
76,F,MaoriPacific,15-29,5043
76,M,Maori,30-59,26700
76,M,Maori,60+,6447
76,F,Pacific,0-14,29289
76,F,Maori,60+,7902
76,F,Pacific,30-59,37110
76,F,Pacific,60+,10926
76,M,MaoriPacific,0-14,9639
76,F,MaoriPacific,30-59,2769
76,F,MaoriPacific,0-14,9114
76,M,Pacific,0-14,30846
76,M,MaoriPacific,15-29,4842
76,M,Pacific,15-29,28200
76,M,MaoriPacific,30-59,2277
76,M,Pacific,60+,9363
76,F,Pacific,15-29,29145
76,M,MaoriPacific,60+,210
76,F,MaoriPacific,60+,237
888,M,Maori,0-14,117
888,F,Other,0-14,1539
888,M,Pacific,0-14,162
888,M,Other,0-14,1629
888,F,Maori,0-14,72
888,M,MaoriPacific,0-14,24
888,F,Pacific,0-14,126
888,F,MaoriPacific,0-14,27
888,M,Maori,15-29,135
888,F,Maori,15-29,153
888,F,Pacific,15-29,354
888,F,MaoriPacific,15-29,27
888,M,Other,15-29,10518
888,F,Other,15-29,13785
888,M,MaoriPacific,15-29,27
888,M,Pacific,15-29,1587
888,M,MaoriPacific,30-59,24
888,M,Pacific,30-59,1686
888,F,Maori,30-59,282
888,M,Other,30-59,13176
888,M,Maori,30-59,273
888,F,Pacific,30-59,558
888,F,Other,30-59,14841
888,F,MaoriPacific,30-59,12
888,F,Maori,60+,105
888,M,Other,60+,15171
888,M,Pacific,60+,150
888,M,Maori,60+,78
888,F,MaoriPacific,60+,999999
888,F,Pacific,60+,210
888,F,Other,60+,16755
999,M,Maori,30-59,999999
999,M,Other,60+,999999
999,F,Other,60+,999999
999,F,Other,15-29,999999
999,M,Other,30-59,6
999,F,Other,30-59,999999
999,M,Maori,60+,999999
999,F,Maori,60+,999999
999,M,Maori,0-14,999999
999,F,Maori,0-14,999999
999,F,Maori,30-59,999999
999,F,Maori,15-29,999999
999,M,Maori,15-29,999999
999,M,MaoriPacific,0-14,999999
999,M,Other,15-29,999999
