"","ethnicity","sex","age_band","small_dwelling","triple_count_total"
"1","MaoriPacific","F","0-14","N",27
"2","MaoriPacific","F","0-14","Y",15966
"3","MaoriPacific","F","15-29","N",66
"4","MaoriPacific","F","15-29","Y",8415
"5","MaoriPacific","F","30-59","N",24
"6","MaoriPacific","F","30-59","Y",5154
"7","MaoriPacific","F","60+","N",12
"8","MaoriPacific","F","60+","Y",579
"9","MaoriPacific","M","0-14","N",33
"10","MaoriPacific","M","0-14","Y",16851
"11","MaoriPacific","M","15-29","N",138
"12","MaoriPacific","M","15-29","Y",7986
"13","MaoriPacific","M","30-59","N",90
"14","MaoriPacific","M","30-59","Y",4224
"15","MaoriPacific","M","60+","N",24
"16","MaoriPacific","M","60+","Y",486
"17","Maori","F","0-14","N",120
"18","Maori","F","0-14","Y",85677
"19","Maori","F","15-29","N",885
"20","Maori","F","15-29","Y",70503
"21","Maori","F","30-59","N",375
"22","Maori","F","30-59","Y",112776
"23","Maori","F","60+","N",813
"24","Maori","F","60+","Y",36111
"25","Maori","M","0-14","N",147
"26","Maori","M","0-14","Y",90054
"27","Maori","M","15-29","N",1545
"28","Maori","M","15-29","Y",66939
"29","Maori","M","30-59","N",1665
"30","Maori","M","30-59","Y",94536
"31","Maori","M","60+","N",624
"32","Maori","M","60+","Y",30429
"33","Pacific","F","0-14","N",45
"34","Pacific","F","0-14","Y",35796
"35","Pacific","F","15-29","N",285
"36","Pacific","F","15-29","Y",34725
"37","Pacific","F","30-59","N",207
"38","Pacific","F","30-59","Y",47328
"39","Pacific","F","60+","N",297
"40","Pacific","F","60+","Y",14259
"41","Pacific","M","0-14","N",72
"42","Pacific","M","0-14","Y",37728
"43","Pacific","M","15-29","N",711
"44","Pacific","M","15-29","Y",33246
"45","Pacific","M","30-59","N",738
"46","Pacific","M","30-59","Y",43338
"47","Pacific","M","60+","N",309
"48","Pacific","M","60+","Y",12363
"49","Other","F","0-14","N",492
"50","Other","F","0-14","Y",275589
"51","Other","F","15-29","N",6120
"52","Other","F","15-29","Y",300516
"53","Other","F","30-59","N",1566
"54","Other","F","30-59","Y",719505
"55","Other","F","60+","N",19011
"56","Other","F","60+","Y",425844
"57","Other","M","0-14","N",576
"58","Other","M","0-14","Y",289188
"59","Other","M","15-29","N",6324
"60","Other","M","15-29","Y",305997
"61","Other","M","30-59","N",3180
"62","Other","M","30-59","Y",662166
"63","Other","M","60+","N",9855
"64","Other","M","60+","Y",386163
