sex,ethnicity,age_band,education_ind,educationTravel_ind,triple_count_total
F,MaoriPacific,0-14,N,N,999999
F,MaoriPacific,0-14,N,Y,39
F,MaoriPacific,0-14,N,NA,5760
F,MaoriPacific,0-14,Y,N,69
F,MaoriPacific,0-14,Y,Y,13434
F,MaoriPacific,15-29,N,N,6
F,MaoriPacific,15-29,N,Y,105
F,MaoriPacific,15-29,N,NA,6198
F,MaoriPacific,15-29,Y,N,183
F,MaoriPacific,15-29,Y,Y,3756
F,MaoriPacific,30-59,N,N,6
F,MaoriPacific,30-59,N,Y,108
F,MaoriPacific,30-59,N,NA,5052
F,MaoriPacific,30-59,Y,N,168
F,MaoriPacific,30-59,Y,Y,534
F,MaoriPacific,60+,N,N,999999
F,MaoriPacific,60+,N,Y,48
F,MaoriPacific,60+,N,NA,567
F,MaoriPacific,60+,Y,N,999999
F,MaoriPacific,60+,Y,Y,18
F,Maori,0-14,N,N,9
F,Maori,0-14,N,Y,249
F,Maori,0-14,N,NA,27834
F,Maori,0-14,Y,N,492
F,Maori,0-14,Y,Y,73257
F,Maori,15-29,N,N,42
F,Maori,15-29,N,Y,879
F,Maori,15-29,N,NA,56745
F,Maori,15-29,Y,N,2283
F,Maori,15-29,Y,Y,26529
F,Maori,30-59,N,N,54
F,Maori,30-59,N,Y,2568
F,Maori,30-59,N,NA,114204
F,Maori,30-59,Y,N,3702
F,Maori,30-59,Y,Y,8418
F,Maori,60+,N,N,27
F,Maori,60+,N,Y,1602
F,Maori,60+,N,NA,37302
F,Maori,60+,Y,N,258
F,Maori,60+,Y,Y,993
F,Pacific,0-14,N,N,9
F,Pacific,0-14,N,Y,147
F,Pacific,0-14,N,NA,12900
F,Pacific,0-14,Y,N,219
F,Pacific,0-14,Y,Y,29781
F,Pacific,15-29,N,N,21
F,Pacific,15-29,N,Y,432
F,Pacific,15-29,N,NA,27048
F,Pacific,15-29,Y,N,465
F,Pacific,15-29,Y,Y,13992
F,Pacific,30-59,N,N,39
F,Pacific,30-59,N,Y,1128
F,Pacific,30-59,N,NA,49533
F,Pacific,30-59,Y,N,690
F,Pacific,30-59,Y,Y,3120
F,Pacific,60+,N,N,12
F,Pacific,60+,N,Y,519
F,Pacific,60+,N,NA,15237
F,Pacific,60+,Y,N,24
F,Pacific,60+,Y,Y,195
F,Other,0-14,N,N,24
F,Other,0-14,N,Y,234
F,Other,0-14,N,NA,69177
F,Other,0-14,Y,N,2193
F,Other,0-14,Y,Y,215883
F,Other,15-29,N,N,42
F,Other,15-29,N,Y,1461
F,Other,15-29,N,NA,211053
F,Other,15-29,Y,N,9522
F,Other,15-29,Y,Y,125601
F,Other,30-59,N,N,108
F,Other,30-59,N,Y,5529
F,Other,30-59,N,NA,714213
F,Other,30-59,Y,N,18318
F,Other,30-59,Y,Y,30360
F,Other,60+,N,N,174
F,Other,60+,N,Y,7494
F,Other,60+,N,NA,463323
F,Other,60+,Y,N,1401
F,Other,60+,Y,Y,3924
M,MaoriPacific,0-14,N,Y,48
M,MaoriPacific,0-14,N,NA,6213
M,MaoriPacific,0-14,Y,N,69
M,MaoriPacific,0-14,Y,Y,14271
M,MaoriPacific,15-29,N,N,999999
M,MaoriPacific,15-29,N,Y,135
M,MaoriPacific,15-29,N,NA,6555
M,MaoriPacific,15-29,Y,N,108
M,MaoriPacific,15-29,Y,Y,3186
M,MaoriPacific,30-59,N,N,999999
M,MaoriPacific,30-59,N,Y,105
M,MaoriPacific,30-59,N,NA,4749
M,MaoriPacific,30-59,Y,N,66
M,MaoriPacific,30-59,Y,Y,288
M,MaoriPacific,60+,N,N,999999
M,MaoriPacific,60+,N,Y,24
M,MaoriPacific,60+,N,NA,522
M,MaoriPacific,60+,Y,N,999999
M,MaoriPacific,60+,Y,Y,12
M,Maori,0-14,N,N,6
M,Maori,0-14,N,Y,264
M,Maori,0-14,N,NA,29616
M,Maori,0-14,Y,N,546
M,Maori,0-14,Y,Y,76845
M,Maori,15-29,N,N,51
M,Maori,15-29,N,Y,1011
M,Maori,15-29,N,NA,61257
M,Maori,15-29,Y,N,1161
M,Maori,15-29,Y,Y,23295
M,Maori,30-59,N,N,66
M,Maori,30-59,N,Y,2262
M,Maori,30-59,N,NA,110607
M,Maori,30-59,Y,N,1365
M,Maori,30-59,Y,Y,4317
M,Maori,60+,N,N,21
M,Maori,60+,N,Y,1296
M,Maori,60+,N,NA,32715
M,Maori,60+,Y,N,123
M,Maori,60+,Y,Y,513
M,Pacific,0-14,N,N,15
M,Pacific,0-14,N,Y,150
M,Pacific,0-14,N,NA,13911
M,Pacific,0-14,Y,N,204
M,Pacific,0-14,Y,Y,31254
M,Pacific,15-29,N,N,18
M,Pacific,15-29,N,Y,582
M,Pacific,15-29,N,NA,31062
M,Pacific,15-29,Y,N,288
M,Pacific,15-29,Y,Y,11607
M,Pacific,30-59,N,N,39
M,Pacific,30-59,N,Y,1026
M,Pacific,30-59,N,NA,51945
M,Pacific,30-59,Y,N,366
M,Pacific,30-59,Y,Y,2055
M,Pacific,60+,N,N,15
M,Pacific,60+,N,Y,579
M,Pacific,60+,N,NA,13389
M,Pacific,60+,Y,N,18
M,Pacific,60+,Y,Y,171
M,Other,0-14,N,N,33
M,Other,0-14,N,Y,240
M,Other,0-14,N,NA,73239
M,Other,0-14,Y,N,2295
M,Other,0-14,Y,Y,226167
M,Other,15-29,N,N,63
M,Other,15-29,N,Y,2070
M,Other,15-29,N,NA,233700
M,Other,15-29,Y,N,5946
M,Other,15-29,Y,Y,121809
M,Other,30-59,N,N,114
M,Other,30-59,N,Y,6057
M,Other,30-59,N,NA,695007
M,Other,30-59,Y,N,8118
M,Other,30-59,Y,Y,21054
M,Other,60+,N,N,279
M,Other,60+,N,Y,6756
M,Other,60+,N,NA,415464
M,Other,60+,Y,N,882
M,Other,60+,Y,Y,2640
